wasiqtai123@gmail.com,Waseem Tai Yoga and Martial Arts,Waseem@123,250,3349441193,A well established premium quality Gym in town with certified trainers.,"164 - Y block, DHA Phase 3, Lahore, Pakistan",31.47225895,74.37858559,162,null,"[{
  ""is_all_day_open"": 0
 },
 {
  ""days"": {
   ""0"": 0,
   ""1"": 1,
   ""2"": 1,
   ""3"": 1,
   ""4"": 1,
   ""5"": 1,
   ""6"": 1
  }
 },
 {
  ""open_time"": {
   ""0"": ""16:00"",
   ""1"": ""16:00"",
   ""2"": ""16:00"",
   ""3"": ""16:00"",
   ""4"": ""16:00"",
   ""5"": ""16:00"",
   ""6"": ""16:00""
  }
 },
 {
  ""close_time"": {
   ""0"": ""23:45"",
   ""1"": ""23:45"",
   ""2"": ""23:45"",
   ""3"": ""23:45"",
   ""4"": ""23:45"",
   ""5"": ""23:45"",
   ""6"": ""23:45""
  }
 }
]","[2,3,5,14]",54000,1,Open from 4pm - midnight
pakmmagrappling@gmail.com,The School of Martial Arts Club,School@12,300,3004318826,A well established premium quality Gym in town with certified trainers.,"School of Martial Arts Commercial Plaza Divine Garden Society near Lahore Air port, Lahore.",31.50229828,74.41515866,162,null,"[{
  ""is_all_day_open"": 0
 },
 {
  ""days"": {
   ""0"": 0,
   ""1"": 1,
   ""2"": 1,
   ""3"": 1,
   ""4"": 1,
   ""5"": 1,
   ""6"": 1
  }
 },
 {
  ""open_time"": {
   ""0"": ""16:00"",
   ""1"": ""16:00"",
   ""2"": ""16:00"",
   ""3"": ""16:00"",
   ""4"": ""16:00"",
   ""5"": ""16:00"",
   ""6"": ""16:00""
  }
 },
 {
  ""close_time"": {
   ""0"": ""23:45"",
   ""1"": ""23:45"",
   ""2"": ""23:45"",
   ""3"": ""23:45"",
   ""4"": ""23:45"",
   ""5"": ""23:45"",
   ""6"": ""23:45""
  }
 }
]","[2,3,5,14]",54000,1,Open from 4pm - midnight
lionsgoldgym786@gmail.com,Lions Gold Gym,Lions@12,100,3226601330,A well established premium quality Gym in town with certified trainers.,"OFFICERS COLONEY 1, Madina Town, Faisalabad, 38000, Pakistan",31.4239434,73.11830061,162,null,"[{
  ""is_all_day_open"": 0
 },
 {
  ""days"": {
   ""0"": 0,
   ""1"": 1,
   ""2"": 1,
   ""3"": 1,
   ""4"": 1,
   ""5"": 1,
   ""6"": 1
  }
 },
 {
  ""open_time"": {
   ""0"": ""07:00"",
   ""1"": ""07:00"",
   ""2"": ""07:00"",
   ""3"": ""07:00"",
   ""4"": ""07:00"",
   ""5"": ""07:00"",
   ""6"": ""07:00""
  }
 },
 {
  ""close_time"": {
   ""0"": ""23:00"",
   ""1"": ""23:00"",
   ""2"": ""23:00"",
   ""3"": ""23:00"",
   ""4"": ""23:00"",
   ""5"": ""23:00"",
   ""6"": ""23:00""
  }
 }
]","[2,3,5,14]",38000,1,Co-timing: 7am - 9:30am. Ladies timing: 9:30am - 4:30pm. Co-timing: 4:30pm - 11pm
fitnesss360@gmail.com,Fitness 360 - Commercial Area Branch Male,Fitness@350,200,3130360360,A well established premium quality Gym in town with certified trainers.,"Ashraf Colony, Bahawalpur, Punjab, Pakistan",29.38890813,71.71387735,163,null,"[{
  ""is_all_day_open"": 0
 },
 {
  ""days"": {
   ""0"": 0,
   ""1"": 1,
   ""2"": 1,
   ""3"": 1,
   ""4"": 1,
   ""5"": 1,
   ""6"": 1
  }
 },
 {
  ""open_time"": {
   ""0"": ""06:00"",
   ""1"": ""06:00"",
   ""2"": ""06:00"",
   ""3"": ""06:00"",
   ""4"": ""06:00"",
   ""5"": ""06:00"",
   ""6"": ""06:00""
  }
 },
 {
  ""close_time"": {
   ""0"": ""23:45"",
   ""1"": ""23:45"",
   ""2"": ""23:45"",
   ""3"": ""23:45"",
   ""4"": ""23:45"",
   ""5"": ""23:45"",
   ""6"": ""23:45""
  }
 }
]","[2,3,5,14]",63100,1,6am - midnight. Please call to confirm ladies timing
fitnesss360@gmail.com,Fitness 360 - Main Branch,Fitness@350,200,3130360360,A well established premium quality Gym in town with certified trainers.,"1st Floor, Gourmet Bakers, Gulberg Road, Model Town, Bahawalpur, Punjab, Pakistan",29.39172227,71.65355565,164,null,"[{
  ""is_all_day_open"": 0
 },
 {
  ""days"": {
   ""0"": 0,
   ""1"": 1,
   ""2"": 1,
   ""3"": 1,
   ""4"": 1,
   ""5"": 1,
   ""6"": 1
  }
 },
 {
  ""open_time"": {
   ""0"": ""06:00"",
   ""1"": ""06:00"",
   ""2"": ""06:00"",
   ""3"": ""06:00"",
   ""4"": ""06:00"",
   ""5"": ""06:00"",
   ""6"": ""06:00""
  }
 },
 {
  ""close_time"": {
   ""0"": ""23:45"",
   ""1"": ""23:45"",
   ""2"": ""23:45"",
   ""3"": ""23:45"",
   ""4"": ""23:45"",
   ""5"": ""23:45"",
   ""6"": ""23:45""
  }
 }
]","[2,3,5,14]",63100,1,6am - midnight. Please call to confirm ladies timing
fitnesss360@gmail.com,Fitness 360 - Female Branch,Fitness@350,200,3130360360,A well established premium quality Gym in town with certified trainers.,"Ashraf Colony, Bahawalpur, basemnt of Stylo Punjab, Pakistan",29.40157776,71.65500791,165,null,"[{
  ""is_all_day_open"": 0
 },
 {
  ""days"": {
   ""0"": 0,
   ""1"": 1,
   ""2"": 1,
   ""3"": 1,
   ""4"": 1,
   ""5"": 1,
   ""6"": 1
  }
 },
 {
  ""open_time"": {
   ""0"": ""08:00"",
   ""1"": ""08:00"",
   ""2"": ""08:00"",
   ""3"": ""08:00"",
   ""4"": ""08:00"",
   ""5"": ""08:00"",
   ""6"": ""08:00""
  }
 },
 {
  ""close_time"": {
   ""0"": ""22:00"",
   ""1"": ""22:00"",
   ""2"": ""22:00"",
   ""3"": ""22:00"",
   ""4"": ""22:00"",
   ""5"": ""22:00"",
   ""6"": ""22:00""
  }
 }
]","[2,3,5,14]",63100,1,8am - 10pm. Please call to confirm ladies timing
fitnesss360@gmail.com,Fitness 360 - Commercial Area Branch - Female,Fitness@350,200,3130360360,A well established premium quality Gym in town with certified trainers.,"Plot 290 C, Commercial area near Arafat e Sherin Bakery",29.38890813,71.71387735,166,null,"[{
  ""is_all_day_open"": 0
 },
 {
  ""days"": {
   ""0"": 0,
   ""1"": 1,
   ""2"": 1,
   ""3"": 1,
   ""4"": 1,
   ""5"": 1,
   ""6"": 1
  }
 },
 {
  ""open_time"": {
   ""0"": ""08:00"",
   ""1"": ""08:00"",
   ""2"": ""08:00"",
   ""3"": ""08:00"",
   ""4"": ""08:00"",
   ""5"": ""08:00"",
   ""6"": ""08:00""
  }
 },
 {
  ""close_time"": {
   ""0"": ""22:00"",
   ""1"": ""22:00"",
   ""2"": ""22:00"",
   ""3"": ""22:00"",
   ""4"": ""22:00"",
   ""5"": ""22:00"",
   ""6"": ""22:00""
  }
 }
]","[2,3,5,14]",63100,1,8am - 10pm. Please call to confirm ladies timing
abdulahad5060@gmail.com,Tribe Fitness Studio & Gym,Tribe@123,150,3157370668,A well established premium quality Gym in town with certified trainers.,"A 14 D, Aziz Bhatti Shaheed Rd, Model Town, Bahawalpur, Punjab 63100, Pakistan",29.396935,71.655501,167,null,"[{
  ""is_all_day_open"": 0
 },
 {
  ""days"": {
   ""0"": 0,
   ""1"": 1,
   ""2"": 1,
   ""3"": 1,
   ""4"": 1,
   ""5"": 1,
   ""6"": 1
  }
 },
 {
  ""open_time"": {
   ""0"": ""08:00"",
   ""1"": ""08:00"",
   ""2"": ""08:00"",
   ""3"": ""08:00"",
   ""4"": ""08:00"",
   ""5"": ""08:00"",
   ""6"": ""08:00""
  }
 },
 {
  ""close_time"": {
   ""0"": ""20:00"",
   ""1"": ""20:00"",
   ""2"": ""20:00"",
   ""3"": ""20:00"",
   ""4"": ""20:00"",
   ""5"": ""20:00"",
   ""6"": ""20:00""
  }
 }
]","[2,3,5,14]",63100,1,8am - 8pm. Please call to confirm ladies timing
Luqman.khan83@gmail.com,Zaad Fitness Club,Zaad@123,250,3018585020,One of the best Gyms in Peshawar with highly trained staff. Gym is equiped with imported machines and Gym apparatuses.,"Zaad Paraca, Abdara Road, University Rd, University Town, Peshawar, Khyber Pakhtunkhwa 25000, Pakistan",34.00195987,74.53315616,168,null,"[{
  ""is_all_day_open"": 0
 },
 {
  ""days"": {
   ""0"": 0,
   ""1"": 1,
   ""2"": 1,
   ""3"": 1,
   ""4"": 1,
   ""5"": 1,
   ""6"": 1
  }
 },
 {
  ""open_time"": {
   ""0"": ""10:00"",
   ""1"": ""10:00"",
   ""2"": ""10:00"",
   ""3"": ""10:00"",
   ""4"": ""10:00"",
   ""5"": ""10:00"",
   ""6"": ""10:00""
  }
 },
 {
  ""close_time"": {
   ""0"": ""17:00"",
   ""1"": ""17:00"",
   ""2"": ""17:00"",
   ""3"": ""17:00"",
   ""4"": ""17:00"",
   ""5"": ""17:00"",
   ""6"": ""17:00""
  }
 }
]","[2,3,5,14]",25000,1,10am - 5pm. Please call to confirm ladies timing
gymnacity@gmail.com,Gymnacity,Gymnacity@123,200,3459160619,A well established premium quality Gym in town with certified trainers.,"16 Old Jamrud Road, University Town, Peshawar, Khyber Pakhtunkhwa, Pakistan",33.99710263,71.49972376,169,null,"[{
  ""is_all_day_open"": 0
 },
 {
  ""days"": {
   ""0"": 0,
   ""1"": 1,
   ""2"": 1,
   ""3"": 1,
   ""4"": 1,
   ""5"": 1,
   ""6"": 1
  }
 },
 {
  ""open_time"": {
   ""0"": ""13:30"",
   ""1"": ""13:30"",
   ""2"": ""13:30"",
   ""3"": ""13:30"",
   ""4"": ""13:30"",
   ""5"": ""13:30"",
   ""6"": ""13:30""
  }
 },
 {
  ""close_time"": {
   ""0"": ""23:00"",
   ""1"": ""23:00"",
   ""2"": ""23:00"",
   ""3"": ""23:00"",
   ""4"": ""23:00"",
   ""5"": ""23:00"",
   ""6"": ""23:00""
  }
 }
]","[2,3,5,14]",25000,1,Ladies: 1.30pm - 5.30pm. Gents: 5.30pm - 11pm
shamsjutt004@gmail.com,Gujranwala Crossfit Centre,GCF@1234,250,3170053236,Unique and trend setter Gym in the realm of health and fitness lead by Wahab Saif and Shamas Rehman who both are intercontinental players of wushu kungfu.,"Satellite Town Market Block C Satellite Town, opposite J.J Gujranwala, Punjab, Pakistan",32.16275727,74.20562209,170,null,"[{
  ""is_all_day_open"": 0
 },
 {
  ""days"": {
   ""0"": 0,
   ""1"": 1,
   ""2"": 1,
   ""3"": 1,
   ""4"": 1,
   ""5"": 1,
   ""6"": 1
  }
 },
 {
  ""open_time"": {
   ""0"": ""06:00"",
   ""1"": ""06:00"",
   ""2"": ""06:00"",
   ""3"": ""06:00"",
   ""4"": ""06:00"",
   ""5"": ""06:00"",
   ""6"": ""06:00""
  }
 },
 {
  ""close_time"": {
   ""0"": ""22:00"",
   ""1"": ""22:00"",
   ""2"": ""22:00"",
   ""3"": ""22:00"",
   ""4"": ""22:00"",
   ""5"": ""22:00"",
   ""6"": ""22:00""
  }
 }
]","[2,3,5,14]",52250,1,6am - 10pm. Please call to confirm ladies timing
umerajiz786@gmail.com,Ayub Bally Total fitness,Ayub@123,100,3226455550,A Well established premium quality gym with certifid trainers.,"Gharib Pura Rd, Khwajgan, Gujrat, Punjab, Pakistan",33.97538152,84.97698878,171,null,"[{
  ""is_all_day_open"": 0
 },
 {
  ""days"": {
   ""0"": 0,
   ""1"": 1,
   ""2"": 1,
   ""3"": 1,
   ""4"": 1,
   ""5"": 1,
   ""6"": 1
  }
 },
 {
  ""open_time"": {
   ""0"": ""06:00"",
   ""1"": ""06:00"",
   ""2"": ""06:00"",
   ""3"": ""06:00"",
   ""4"": ""06:00"",
   ""5"": ""06:00"",
   ""6"": ""06:00""
  }
 },
 {
  ""close_time"": {
   ""0"": ""23:00"",
   ""1"": ""23:00"",
   ""2"": ""23:00"",
   ""3"": ""23:00"",
   ""4"": ""23:00"",
   ""5"": ""23:00"",
   ""6"": ""23:00""
  }
 }
]","[2,3,5,14]",50700,1,Co-timing: 6am - 10am. Ladies timing: 10am - 4pm. Co-timing: 4pm - 11pm
goldgymskt@yahoo.com,Golds Gym - Adalat Garh,Golds@123,150,3328739554,"We believe in hard work. It can change yourself, your personality and boost your confidence.","Adalat Garh Adalatgarh, Sialkot, Punjab, Pakistan",32.48878436,74.48983404,172,null,"[{
  ""is_all_day_open"": 0
 },
 {
  ""days"": {
   ""0"": 0,
   ""1"": 1,
   ""2"": 1,
   ""3"": 1,
   ""4"": 1,
   ""5"": 1,
   ""6"": 1
  }
 },
 {
  ""open_time"": {
   ""0"": ""06:00"",
   ""1"": ""06:00"",
   ""2"": ""06:00"",
   ""3"": ""06:00"",
   ""4"": ""06:00"",
   ""5"": ""06:00"",
   ""6"": ""06:00""
  }
 },
 {
  ""close_time"": {
   ""0"": ""22:00"",
   ""1"": ""22:00"",
   ""2"": ""22:00"",
   ""3"": ""22:00"",
   ""4"": ""22:00"",
   ""5"": ""22:00"",
   ""6"": ""22:00""
  }
 }
]","[2,3,5,14]",51310,1,Co-timing: 6am - 9am. Ladies timing: 3pm - 4pm. Co-timing: 5pm - 10pm
goldgymskt@yahoo.com,Golds Gym - Ugoki,Golds@123,150,3328739554,"A trusted fitness centre that guarantees results, and gets the pulse racing.","Wazirabad Rd, Model Town, Ugoke, Sialkot, Punjab, Pakistan",32.47902109,74.4445821,173,null,"[{
  ""is_all_day_open"": 0
 },
 {
  ""days"": {
   ""0"": 0,
   ""1"": 1,
   ""2"": 1,
   ""3"": 1,
   ""4"": 1,
   ""5"": 1,
   ""6"": 1
  }
 },
 {
  ""open_time"": {
   ""0"": ""06:00"",
   ""1"": ""06:00"",
   ""2"": ""06:00"",
   ""3"": ""06:00"",
   ""4"": ""06:00"",
   ""5"": ""06:00"",
   ""6"": ""06:00""
  }
 },
 {
  ""close_time"": {
   ""0"": ""22:00"",
   ""1"": ""22:00"",
   ""2"": ""22:00"",
   ""3"": ""22:00"",
   ""4"": ""22:00"",
   ""5"": ""22:00"",
   ""6"": ""22:00""
  }
 }
]","[2,3,5,14]",51310,1,Co-timing: 6am - 9am. Ladies timing: 3pm - 4pm. Co-timing: 5pm - 10pm
karmawala@gmail.com,Karmawala Gym Of Sialkot,Karmawala@123,100,3217128706,"We provide Cardio, Crossfit, and Weight Training, all in one for all the fitness lovers.","Mujahid Rd, Rehmat Pura Latefa Bad, Sialkot, Punjab, Pakistan",32.49554531,74.53315616,174,null,"[{
  ""is_all_day_open"": 0
 },
 {
  ""days"": {
   ""0"": 0,
   ""1"": 1,
   ""2"": 1,
   ""3"": 1,
   ""4"": 1,
   ""5"": 1,
   ""6"": 1
  }
 },
 {
  ""open_time"": {
   ""0"": ""09:30"",
   ""1"": ""09:30"",
   ""2"": ""09:30"",
   ""3"": ""09:30"",
   ""4"": ""09:30"",
   ""5"": ""09:30"",
   ""6"": ""09:30""
  }
 },
 {
  ""close_time"": {
   ""0"": ""23:00"",
   ""1"": ""23:00"",
   ""2"": ""23:00"",
   ""3"": ""23:00"",
   ""4"": ""23:00"",
   ""5"": ""23:00"",
   ""6"": ""23:00""
  }
 }
]","[2,3,5,14]",51310,1,Ladies: 9.30am - 1pm. Gents: 3pm - 11pm
