ayccomplains@gmail.com,Life Fitness Gym,LifeF@12,200,03145100973,"Life Fitness Gym with brand new Fitness Machines, Cardio Machines and Cross Fit Machines right in the heart of Rawalpindi Commercial Market.",2nd Floor Nadir Corner Above Zam Zam Restuarent Commercial Market,33.63845387,73.06807917,162,null,"[{
  ""is_all_day_open"": 0
 },
 {
  ""days"": {
   ""0"": 0,
   ""1"": 1,
   ""2"": 1,
   ""3"": 1,
   ""4"": 1,
   ""5"": 1,
   ""6"": 1
  }
 },
 {
  ""open_time"": {
   ""0"": ""07:00"",
   ""1"": ""07:00"",
   ""2"": ""07:00"",
   ""3"": ""07:00"",
   ""4"": ""07:00"",
   ""5"": ""07:00"",
   ""6"": ""07:00""
  }
 },
 {
  ""close_time"": {
   ""0"": ""23:45"",
   ""1"": ""23:45"",
   ""2"": ""23:45"",
   ""3"": ""23:45"",
   ""4"": ""23:45"",
   ""5"": ""23:45"",
   ""6"": ""23:45""
  }
 }
]","[2,3,4,5,9,14]",44000,1,Open from 7am - midnight. Ladies only from 11:30am - 3:30pm 
saadakram287@gmail.com,Gym Fitnastic,GymFit@12,250,03075310934,A great environment to workout and get Fit!,99-D Spring North Opposite Gloria Jeans Bahria Phase 7 RWP,33.51868702,73.0858075,162,null,"[{
  ""is_all_day_open"": 0
 },
 {
  ""days"": {
   ""0"": 0,
   ""1"": 1,
   ""2"": 1,
   ""3"": 1,
   ""4"": 1,
   ""5"": 1,
   ""6"": 1
  }
 },
 {
  ""open_time"": {
   ""0"": ""06:00"",
   ""1"": ""06:00"",
   ""2"": ""06:00"",
   ""3"": ""06:00"",
   ""4"": ""06:00"",
   ""5"": ""06:00"",
   ""6"": ""06:00""
  }
 },
 {
  ""close_time"": {
   ""0"": ""22:00"",
   ""1"": ""22:00"",
   ""2"": ""22:00"",
   ""3"": ""22:00"",
   ""4"": ""22:00"",
   ""5"": ""22:00"",
   ""6"": ""22:00""
  }
 }
]","[2,3,4,5,9,14]",44000,1,Open from 6am - 10pm. Ladies only from 10am - 4pm.
shanicc0007@gmail.com,Fitness Avenue,FitAve@12,250,03365025143,A great environment to workout and get Fit!,Almas Plaza Basement Opposite China Centre Bahria Town Phase 7,33.5331785,73.11209226,162,null,"[{
  ""is_all_day_open"": 0
 },
 {
  ""days"": {
   ""0"": 0,
   ""1"": 1,
   ""2"": 1,
   ""3"": 1,
   ""4"": 1,
   ""5"": 1,
   ""6"": 1
  }
 },
 {
  ""open_time"": {
   ""0"": ""07:00"",
   ""1"": ""09:00"",
   ""2"": ""09:00"",
   ""3"": ""09:00"",
   ""4"": ""09:00"",
   ""5"": ""09:00"",
   ""6"": ""09:00""
  }
 },
 {
  ""close_time"": {
   ""0"": ""23:45"",
   ""1"": ""23:45"",
   ""2"": ""23:45"",
   ""3"": ""23:45"",
   ""4"": ""23:45"",
   ""5"": ""23:45"",
   ""6"": ""23:45""
  }
 }
]","[2,3,4,5,9,14]",44000,1,Open from 9am - midnight. Please call to confirm ladies timing
kashifmalikfitness@gmail.com,KM Fitness,KM@12,300,03325526775,A great environment to workout and get Fit!,Adjacent Shell Pump Bostan Khan Road Chaklala Scheme 3 RWP,33.58983733,73.09534163,162,null,"[{
  ""is_all_day_open"": 0
 },
 {
  ""days"": {
   ""0"": 0,
   ""1"": 1,
   ""2"": 1,
   ""3"": 1,
   ""4"": 1,
   ""5"": 1,
   ""6"": 1
  }
 },
 {
  ""open_time"": {
   ""0"": ""07:00"",
   ""1"": ""09:00"",
   ""2"": ""09:00"",
   ""3"": ""09:00"",
   ""4"": ""09:00"",
   ""5"": ""09:00"",
   ""6"": ""09:00""
  }
 },
 {
  ""close_time"": {
   ""0"": ""23:45"",
   ""1"": ""23:45"",
   ""2"": ""23:45"",
   ""3"": ""23:45"",
   ""4"": ""23:45"",
   ""5"": ""23:45"",
   ""6"": ""23:45""
  }
 }
]","[2,3,4,5,9,14]",44000,1,Please call to confirm ladies timing
rijakhanrk7@gmail.com,Inferno Gym,Inferno@12,320,03335198516,A great environment to workout and get Fit!,"
Silk Tower Plaza, Plot # 55 Civic Centre Oppo. Chaye Khana Bahria Town",33.55164069,73.12484364,162,null,"[{
  ""is_all_day_open"": 0
 },
 {
  ""days"": {
   ""0"": 0,
   ""1"": 1,
   ""2"": 1,
   ""3"": 1,
   ""4"": 1,
   ""5"": 1,
   ""6"": 1
  }
 },
 {
  ""open_time"": {
   ""0"": ""07:00"",
   ""1"": ""09:00"",
   ""2"": ""09:00"",
   ""3"": ""09:00"",
   ""4"": ""09:00"",
   ""5"": ""09:00"",
   ""6"": ""09:00""
  }
 },
 {
  ""close_time"": {
   ""0"": ""23:45"",
   ""1"": ""23:45"",
   ""2"": ""23:45"",
   ""3"": ""23:45"",
   ""4"": ""23:45"",
   ""5"": ""23:45"",
   ""6"": ""23:45""
  }
 }
]","[2,3,4,5,9,14]",44000,1,Ladies only:  9am - 11am. Co-timing: 2pm - midnight
voltagegym@gmail.com,Voltage Gym,Voltage@12,300,03008577852,We are pleased to introduce you to Voltage Gym. It's our strong belief that health and fitness in Lahore should be affordable and accessible for everyone.,"DD-Block Dd Block Sector D Bahria Town, Lahore, Punjab, Pakistan",31.37472055,74.16424559,162,null,"[{
  ""is_all_day_open"": 0
 },
 {
  ""days"": {
   ""0"": 0,
   ""1"": 1,
   ""2"": 1,
   ""3"": 1,
   ""4"": 1,
   ""5"": 1,
   ""6"": 1
  }
 },
 {
  ""open_time"": {
   ""0"": ""07:00"",
   ""1"": ""07:00"",
   ""2"": ""07:00"",
   ""3"": ""07:00"",
   ""4"": ""07:00"",
   ""5"": ""07:00"",
   ""6"": ""07:00""
  }
 },
 {
  ""close_time"": {
   ""0"": ""22:00"",
   ""1"": ""22:00"",
   ""2"": ""22:00"",
   ""3"": ""22:00"",
   ""4"": ""22:00"",
   ""5"": ""22:00"",
   ""6"": ""22:00""
  }
 }
]","[2,3,4,5,9,14]",54000,1,Open from 7am - 10pm. Ladies only from 10am - 5pm
