Fitness Extreem,Extreem@12,250,03009293948,We offer Great equipment and a Great environment. Come check us out.,"no. 9 12/C Sunset Ln, Phase 2 Ext Defence Housing Authority, Karachi, Karachi City, Sindh 75500, Pakistan",24.831411,67.067412,162,null,"[{
  ""is_all_day_open"": 0
 },
 {
  ""days"": {
   ""0"": 0,
   ""1"": 1,
   ""2"": 1,
   ""3"": 1,
   ""4"": 1,
   ""5"": 1,
   ""6"": 1
  }
 },
 {
  ""open_time"": {
   ""0"": ""07:00"",
   ""1"": ""07:00"",
   ""2"": ""07:00"",
   ""3"": ""07:00"",
   ""4"": ""07:00"",
   ""5"": ""07:00"",
   ""6"": ""07:00""
  }
 },
 {
  ""close_time"": {
   ""0"": ""23:45"",
   ""1"": ""23:45"",
   ""2"": ""23:45"",
   ""3"": ""23:45"",
   ""4"": ""23:45"",
   ""5"": ""23:45"",
   ""6"": ""23:45""
  }
 }
]","2,3,14,5",74000,1,Always staffed during opening hours. Please call to confirm ladies timing,Always staffed during opening hours. Please call to confirm ladies timing
Body Muscle,MuscleB@12,250,03452219923,We offer Great equipment and a Great environment. Come check us out.,"7-C 24th Commercial St, Phase 2 Commercial Area Defence Housing Authority, Karachi, Karachi City, Sindh 75500, Pakistan",24.83016,67.066808,162,null,"[{
  ""is_all_day_open"": 0
 },
 {
  ""days"": {
   ""0"": 0,
   ""1"": 1,
   ""2"": 1,
   ""3"": 1,
   ""4"": 1,
   ""5"": 1,
   ""6"": 1
  }
 },
 {
  ""open_time"": {
   ""0"": ""07:00"",
   ""1"": ""07:00"",
   ""2"": ""07:00"",
   ""3"": ""07:00"",
   ""4"": ""07:00"",
   ""5"": ""07:00"",
   ""6"": ""07:00""
  }
 },
 {
  ""close_time"": {
   ""0"": ""22:00"",
   ""1"": ""22:00"",
   ""2"": ""22:00"",
   ""3"": ""22:00"",
   ""4"": ""22:00"",
   ""5"": ""22:00"",
   ""6"": ""22:00""
  }
 }
]","2,3,14,5",74000,1,Co-timing: 7am - 1am. Ladies timing: 10am - 5pm. Co-timing: 5pm - 10pm,Co-timing: 7am - 1am. Ladies timing: 10am - 5pm. Co-timing: 5pm - 10pm
Muscle Mania,MuscleM@12,450,03219029096,We offer Great equipment and a Great environment. Come check us out.,"Lane 7 Bukhari Commercial Area Phase 6 Defence Housing Authority, Karachi, Karachi City, Sindh 75500, Pakistan",24.801666,67.072703,162,null,"[{
  ""is_all_day_open"": 0
 },
 {
  ""days"": {
   ""0"": 0,
   ""1"": 1,
   ""2"": 1,
   ""3"": 1,
   ""4"": 1,
   ""5"": 1,
   ""6"": 1
  }
 },
 {
  ""open_time"": {
   ""0"": ""08:00"",
   ""1"": ""08:00"",
   ""2"": ""08:00"",
   ""3"": ""08:00"",
   ""4"": ""08:00"",
   ""5"": ""08:00"",
   ""6"": ""08:00""
  }
 },
 {
  ""close_time"": {
   ""0"": ""23:00"",
   ""1"": ""23:00"",
   ""2"": ""23:00"",
   ""3"": ""23:00"",
   ""4"": ""23:00"",
   ""5"": ""23:00"",
   ""6"": ""23:00""
  }
 }
]","3,14,5",74000,1,Always staffed during opening hours. Please call to confirm ladies timing,Always staffed during opening hours. Please call to confirm ladies timing
The Gym get lean,LeanG@12,400,03332165645,We offer Great equipment and a Great environment. Come check us out.,"Bukhari Commercial Area Phase 6 Defence Housing Authority, Karachi, Karachi City, Sindh 75500, Pakistan",24.792001,67.064304,162,null,"[{
  ""is_all_day_open"": 0
 },
 {
  ""days"": {
   ""0"": 0,
   ""1"": 1,
   ""2"": 1,
   ""3"": 1,
   ""4"": 1,
   ""5"": 1,
   ""6"": 1
  }
 },
 {
  ""open_time"": {
   ""0"": ""07:00"",
   ""1"": ""07:00"",
   ""2"": ""07:00"",
   ""3"": ""07:00"",
   ""4"": ""07:00"",
   ""5"": ""07:00"",
   ""6"": ""07:00""
  }
 },
 {
  ""close_time"": {
   ""0"": ""23:00"",
   ""1"": ""23:00"",
   ""2"": ""23:00"",
   ""3"": ""23:00"",
   ""4"": ""23:00"",
   ""5"": ""23:00"",
   ""6"": ""23:00""
  }
 }
]","2,3,14,5",74000,1,Co-timing: 7am - 11am. Ladies timing: 11am - 5pm. Co-timing: 5pm - 11pm,Co-timing: 7am - 11am. Ladies timing: 11am - 5pm. Co-timing: 5pm - 11pm
The Muscle Town,MuscleT@12,390,03342870294,We offer Great equipment and a Great environment. Come check us out.,"B 75, Block L North Nazimabad Town, Karachi, Karachi City, Sindh, Pakistan",24.93812,67.054142,162,null,"[{
  ""is_all_day_open"": 0
 },
 {
  ""days"": {
   ""0"": 0,
   ""1"": 1,
   ""2"": 1,
   ""3"": 1,
   ""4"": 1,
   ""5"": 1,
   ""6"": 1
  }
 },
 {
  ""open_time"": {
   ""0"": ""07:00"",
   ""1"": ""07:00"",
   ""2"": ""07:00"",
   ""3"": ""07:00"",
   ""4"": ""07:00"",
   ""5"": ""07:00"",
   ""6"": ""07:00""
  }
 },
 {
  ""close_time"": {
   ""0"": ""23:45"",
   ""1"": ""23:45"",
   ""2"": ""23:45"",
   ""3"": ""23:45"",
   ""4"": ""23:45"",
   ""5"": ""23:45"",
   ""6"": ""23:45""
  }
 }
]","2,3,14,5",74000,1,Co-timing: 7am - 10am. Ladies timing: 10am - 5pm. Co-timing: 5pm - midnight,Co-timing: 7am - 10am. Ladies timing: 10am - 5pm. Co-timing: 5pm - midnight
Legacy Fitness,Legacy@12,400,03352164183,We offer Great equipment and a Great environment. Come check us out.,"C-257, near Ayesha Manzil, Federal B Area Block 10 Gulberg Town, Karachi, Karachi City, Sindh, Pakistan",24.930637,67.061741,162,null,"[{
  ""is_all_day_open"": 0
 },
 {
  ""days"": {
   ""0"": 0,
   ""1"": 1,
   ""2"": 1,
   ""3"": 1,
   ""4"": 1,
   ""5"": 1,
   ""6"": 1
  }
 },
 {
  ""open_time"": {
   ""0"": ""07:00"",
   ""1"": ""07:00"",
   ""2"": ""07:00"",
   ""3"": ""07:00"",
   ""4"": ""07:00"",
   ""5"": ""07:00"",
   ""6"": ""07:00""
  }
 },
 {
  ""close_time"": {
   ""0"": ""23:45"",
   ""1"": ""23:45"",
   ""2"": ""23:45"",
   ""3"": ""23:45"",
   ""4"": ""23:45"",
   ""5"": ""23:45"",
   ""6"": ""23:45""
  }
 }
]","2,3,14,9,5,11,4",74000,1,Co-timing: 7am - 12pm. Ladies timing: 12pm - 5pm. Co-timing: 5pm - midnight,Co-timing: 7am - 12pm. Ladies timing: 12pm - 5pm. Co-timing: 5pm - midnight
Omi Fitness,Omi@12,250,03121298861,We offer Great equipment and a Great environment. Come check us out.,"beside Taleemi Bagh and Nazeer Hussain Hospital, Federal B Area Naseerabad Block 9 Gulberg Town, Karachi, Karachi City, Sindh, Pakistan",24.928531,67.070293,162,null,"[{
  ""is_all_day_open"": 0
 },
 {
  ""days"": {
   ""0"": 0,
   ""1"": 1,
   ""2"": 1,
   ""3"": 1,
   ""4"": 1,
   ""5"": 1,
   ""6"": 1
  }
 },
 {
  ""open_time"": {
   ""0"": ""07:00"",
   ""1"": ""07:00"",
   ""2"": ""07:00"",
   ""3"": ""07:00"",
   ""4"": ""07:00"",
   ""5"": ""07:00"",
   ""6"": ""07:00""
  }
 },
 {
  ""close_time"": {
   ""0"": ""23:45"",
   ""1"": ""23:45"",
   ""2"": ""23:45"",
   ""3"": ""23:45"",
   ""4"": ""23:45"",
   ""5"": ""23:45"",
   ""6"": ""23:45""
  }
 }
]","2,3,14,5,13,11",74000,1,Co-timing: 7am - 10am. Ladies timing: 10am - 5pm. Co-timing: 5pm - midnight,Co-timing: 7am - 10am. Ladies timing: 10am - 5pm. Co-timing: 5pm - midnight
Amir Muscle Arena,AmirM@12,175,03425009009,We offer Great equipment and a Great environment. Come check us out.,"Mezzanine Floor,Al Malik Blessings , Block 19 Gulistan-e-Johar, Karachi, Karachi City, Sindh, Pakistan",24.905821,67.117396,162,null,"[{
  ""is_all_day_open"": 0
 },
 {
  ""days"": {
   ""0"": 0,
   ""1"": 1,
   ""2"": 1,
   ""3"": 1,
   ""4"": 1,
   ""5"": 1,
   ""6"": 1
  }
 },
 {
  ""open_time"": {
   ""0"": ""14:00"",
   ""1"": ""14:00"",
   ""2"": ""14:00"",
   ""3"": ""14:00"",
   ""4"": ""14:00"",
   ""5"": ""14:00"",
   ""6"": ""14:00""
  }
 },
 {
  ""close_time"": {
   ""0"": ""23:45"",
   ""1"": ""23:45"",
   ""2"": ""23:45"",
   ""3"": ""23:45"",
   ""4"": ""23:45"",
   ""5"": ""23:45"",
   ""6"": ""23:45""
  }
 }
]","2,3,14,5",74000,1,Ladies only: 2pm - 5pm. Co-timing 5pm - midnight,Ladies only: 2pm - 5pm. Co-timing 5pm - midnight
Profaction,Profaction@12,350,03332124414,We offer Great equipment and a Great environment. Come check us out.,"Osif Center, E 4, 5th Floor, Block 13 A Gulshan-e-Iqbal, Karachi, Karachi City, Sindh, Pakistan",24.90474,67.078266,162,null,"[{
  ""is_all_day_open"": 0
 },
 {
  ""days"": {
   ""0"": 0,
   ""1"": 1,
   ""2"": 1,
   ""3"": 1,
   ""4"": 1,
   ""5"": 1,
   ""6"": 1
  }
 },
 {
  ""open_time"": {
   ""0"": ""08:00"",
   ""1"": ""08:00"",
   ""2"": ""08:00"",
   ""3"": ""08:00"",
   ""4"": ""08:00"",
   ""5"": ""08:00"",
   ""6"": ""08:00""
  }
 },
 {
  ""close_time"": {
   ""0"": ""23:00"",
   ""1"": ""23:00"",
   ""2"": ""23:00"",
   ""3"": ""23:00"",
   ""4"": ""23:00"",
   ""5"": ""23:00"",
   ""6"": ""23:00""
  }
 }
]","2,3,14,5,13,11",74000,1,Always staffed during opening hours. Please call to confirm ladies timing,Always staffed during opening hours. Please call to confirm ladies timing
LivFit,Livfit@12,150,03442491156,We offer Great equipment and a Great environment. Come check us out.,"Plot R 1195, Federal B Area Block 15 Gulberg Town, Karachi, Karachi City, Sindh, Pakistan",24.925389,67.076656,162,null,"[{
  ""is_all_day_open"": 0
 },
 {
  ""days"": {
   ""0"": 0,
   ""1"": 1,
   ""2"": 1,
   ""3"": 1,
   ""4"": 1,
   ""5"": 1,
   ""6"": 1
  }
 },
 {
  ""open_time"": {
   ""0"": ""15:30"",
   ""1"": ""15:30"",
   ""2"": ""15:30"",
   ""3"": ""15:30"",
   ""4"": ""15:30"",
   ""5"": ""15:30"",
   ""6"": ""15:30""
  }
 },
 {
  ""close_time"": {
   ""0"": ""22:00"",
   ""1"": ""22:00"",
   ""2"": ""22:00"",
   ""3"": ""22:00"",
   ""4"": ""22:00"",
   ""5"": ""22:00"",
   ""6"": ""22:00""
  }
 }
]","2,3,14,5",74000,1,Ladies only: 3.30pm - 5pm. Gents only: 5.30pm - 10pm,Ladies only: 3.30pm - 5pm. Gents only: 5.30pm - 10pm
The Macho Gym,Macho@12,300,03007045216,We offer Great equipment and a Great environment. Come check us out.,"Sameer Arcade, Plot # SB-15, Block#7, University Rd, Scheme 36 Block 7 Gulistan-e-Johar, Karachi, Karachi City, Sindh 75270, Pakistan",24.937907,67.151227,162,null,"[{
  ""is_all_day_open"": 0
 },
 {
  ""days"": {
   ""0"": 1,
   ""1"": 1,
   ""2"": 1,
   ""3"": 1,
   ""4"": 1,
   ""5"": 1,
   ""6"": 1
  }
 },
 {
  ""open_time"": {
   ""0"": ""14:00"",
   ""1"": ""07:00"",
   ""2"": ""07:00"",
   ""3"": ""07:00"",
   ""4"": ""07:00"",
   ""5"": ""07:00"",
   ""6"": ""14:00""
  }
 },
 {
  ""close_time"": {
   ""0"": ""23:45"",
   ""1"": ""23:45"",
   ""2"": ""23:45"",
   ""3"": ""23:45"",
   ""4"": ""23:45"",
   ""5"": ""23:45"",
   ""6"": ""23:45""
  }
 }
]","2,3,14,5,9",74000,1,Co-timing: 7am - 9am. Ladies only: 10am - 3pm. Co-timing: 4pm - midnight,Co-timing: 7am - 9am. Ladies only: 10am - 3pm. Co-timing: 4pm - midnight
Body Image Fitness Studio - Gulshan e Iqbal 10 A branch,Body10@12,175,03053256502,We offer Great equipment and a Great environment. Come check us out.,"Plot # 29, Gulshan-e-iqbal, Block 10 Block 10 A National Cement Employees CHS, Karachi, Karachi City, Sindh, Pakistan",24.909383,67.106842,162,null,"[{
  ""is_all_day_open"": 0
 },
 {
  ""days"": {
   ""0"": 0,
   ""1"": 1,
   ""2"": 1,
   ""3"": 1,
   ""4"": 1,
   ""5"": 1,
   ""6"": 1
  }
 },
 {
  ""open_time"": {
   ""0"": ""17:00"",
   ""1"": ""17:00"",
   ""2"": ""17:00"",
   ""3"": ""17:00"",
   ""4"": ""17:00"",
   ""5"": ""17:00"",
   ""6"": ""17:00""
  }
 },
 {
  ""close_time"": {
   ""0"": ""23:45"",
   ""1"": ""23:45"",
   ""2"": ""23:45"",
   ""3"": ""23:45"",
   ""4"": ""23:45"",
   ""5"": ""23:45"",
   ""6"": ""23:45""
  }
 }
]","2,3,14,5",74000,1,Always staffed during opening hours. Please call to confirm ladies timing. Open 5pm - midnight.,Always staffed during opening hours. Please call to confirm ladies timing. Open 5pm - midnight.
Body to Build,Build@12,250,03053256502,We offer Great equipment and a Great environment. Come check us out.,"AR-32,Block 10 Gulshan-e-Iqbal",24.913704,67.097687,162,null,"[{
  ""is_all_day_open"": 0
 },
 {
  ""days"": {
   ""0"": 0,
   ""1"": 1,
   ""2"": 1,
   ""3"": 1,
   ""4"": 1,
   ""5"": 1,
   ""6"": 1
  }
 },
 {
  ""open_time"": {
   ""0"": ""06:00"",
   ""1"": ""06:00"",
   ""2"": ""06:00"",
   ""3"": ""06:00"",
   ""4"": ""06:00"",
   ""5"": ""06:00"",
   ""6"": ""06:00""
  }
 },
 {
  ""close_time"": {
   ""0"": ""23:45"",
   ""1"": ""23:45"",
   ""2"": ""23:45"",
   ""3"": ""23:45"",
   ""4"": ""23:45"",
   ""5"": ""23:45"",
   ""6"": ""23:45""
  }
 }
]","2,3,14,5",74000,1,Co-timing: 6am - 9am. Ladies only: 11am - 3pm. Co-timing: 5pm - midnight,Co-timing: 6am - 9am. Ladies only: 11am - 3pm. Co-timing: 5pm - midnight
Royal Gym,RoyalG@12,200,03122707489,We offer Great equipment and a Great environment. Come check us out.,"Yasmeen tower, shop no. 1 & 2, Block 11 Gulistan-e-Johar, Karachi, Karachi City, Sindh, Pakistan",24.92028,67.135471,162,null,"[{
  ""is_all_day_open"": 0
 },
 {
  ""days"": {
   ""0"": 0,
   ""1"": 1,
   ""2"": 1,
   ""3"": 1,
   ""4"": 1,
   ""5"": 1,
   ""6"": 1
  }
 },
 {
  ""open_time"": {
   ""0"": ""07:00"",
   ""1"": ""07:00"",
   ""2"": ""07:00"",
   ""3"": ""07:00"",
   ""4"": ""07:00"",
   ""5"": ""07:00"",
   ""6"": ""07:00""
  }
 },
 {
  ""close_time"": {
   ""0"": ""23:45"",
   ""1"": ""23:45"",
   ""2"": ""23:45"",
   ""3"": ""23:45"",
   ""4"": ""23:45"",
   ""5"": ""23:45"",
   ""6"": ""23:45""
  }
 }
]","2,3,14,5",74000,1,Co-timing: 7am - 9am. Ladies only: 10am - 4pm. Co-timing: 5pm - midnight,Co-timing: 7am - 9am. Ladies only: 10am - 4pm. Co-timing: 5pm - midnight
Virgin Active fitness Club,Virgin@12,150,03102523273,We offer Great equipment and a Great environment. Come check us out.,"Decent Garden, Gulistan-e-Jauhar-Malir Cantt Rd, Block 7 Gulistan-e-Johar, Karachi, Karachi City, Sindh, Pakistan",24.936806,67.146885,162,null,"[{
  ""is_all_day_open"": 0
 },
 {
  ""days"": {
   ""0"": 0,
   ""1"": 1,
   ""2"": 1,
   ""3"": 1,
   ""4"": 1,
   ""5"": 1,
   ""6"": 1
  }
 },
 {
  ""open_time"": {
   ""0"": ""08:00"",
   ""1"": ""08:00"",
   ""2"": ""08:00"",
   ""3"": ""08:00"",
   ""4"": ""08:00"",
   ""5"": ""08:00"",
   ""6"": ""08:00""
  }
 },
 {
  ""close_time"": {
   ""0"": ""23:45"",
   ""1"": ""23:45"",
   ""2"": ""23:45"",
   ""3"": ""23:45"",
   ""4"": ""23:45"",
   ""5"": ""23:45"",
   ""6"": ""23:45""
  }
 }
]","2,3,14,5",74000,1,Co-timing: 8am - 10am. Ladies only: 10am - 4pm. Co-timing: 4pm - midnight,Co-timing: 8am - 10am. Ladies only: 10am - 4pm. Co-timing: 4pm - midnight
The Gym get lean - Saddar,LeanG2@12,300,03332165644,We offer Great equipment and a Great environment. Come check us out.,"Shafiq Plaza Rendell Rd Saddar Town, Preedy Quarters, Karachi, Karachi City, Sindh 74400, Pakistan",24.865939,67.023041,162,null,"[{
  ""is_all_day_open"": 0
 },
 {
  ""days"": {
   ""0"": 0,
   ""1"": 1,
   ""2"": 1,
   ""3"": 1,
   ""4"": 1,
   ""5"": 1,
   ""6"": 1
  }
 },
 {
  ""open_time"": {
   ""0"": ""07:00"",
   ""1"": ""07:00"",
   ""2"": ""07:00"",
   ""3"": ""07:00"",
   ""4"": ""07:00"",
   ""5"": ""07:00"",
   ""6"": ""07:00""
  }
 },
 {
  ""close_time"": {
   ""0"": ""23:45"",
   ""1"": ""23:45"",
   ""2"": ""23:45"",
   ""3"": ""23:45"",
   ""4"": ""23:45"",
   ""5"": ""23:45"",
   ""6"": ""23:45""
  }
 }
]","2,3,14,5",74000,1,Co-timing: 7am - 10am. Ladies only: 1pm - 5pm. Co-timing: 5pm - midnight,Co-timing: 7am - 10am. Ladies only: 1pm - 5pm. Co-timing: 5pm - midnight
