z_shoaib@hotmail.com,Shoaib Gym Krishan Nagar,Shoaib@123,400,03214806989,A top of the line quality Gym part of the Shoaib Gym Network.,"Alamgir Rd, Krishan Nagar, Lahore, Punjab 54000, Pakistan",31.56883259,74.30706966,162,null,"[{
  ""is_all_day_open"": 0
 },
 {
  ""days"": {
   ""0"": 0,
   ""1"": 1,
   ""2"": 1,
   ""3"": 1,
   ""4"": 1,
   ""5"": 1,
   ""6"": 1
  }
 },
 {
  ""open_time"": {
   ""0"": ""06:00"",
   ""1"": ""06:00"",
   ""2"": ""06:00"",
   ""3"": ""06:00"",
   ""4"": ""06:00"",
   ""5"": ""06:00"",
   ""6"": ""06:00""
  }
 },
 {
  ""close_time"": {
   ""0"": ""23:00"",
   ""1"": ""23:00"",
   ""2"": ""23:00"",
   ""3"": ""23:00"",
   ""4"": ""23:00"",
   ""5"": ""23:00"",
   ""6"": ""23:00""
  }
 }
]","[2,3,4,5,9,14]",54000,1,Open from 6am - 11pm. Please call to confirm ladies timing.
z_shoaib@hotmail.com,Shoaib Gym Allama Iqbal Town,Shoaib@124,401,03214806990,A top of the line quality Gym part of the Shoaib Gym Network.,"Rukhshanda Complex, Hafiz Taib Rd, Kashmir Block, Allama Iqbal Town, Lahore, Punjab",31.5243597,74.30363644,162,null,"[{
  ""is_all_day_open"": 0
 },
 {
  ""days"": {
   ""0"": 0,
   ""1"": 1,
   ""2"": 1,
   ""3"": 1,
   ""4"": 1,
   ""5"": 1,
   ""6"": 1
  }
 },
 {
  ""open_time"": {
   ""0"": ""06:00"",
   ""1"": ""06:00"",
   ""2"": ""06:00"",
   ""3"": ""06:00"",
   ""4"": ""06:00"",
   ""5"": ""06:00"",
   ""6"": ""06:00""
  }
 },
 {
  ""close_time"": {
   ""0"": ""23:00"",
   ""1"": ""23:00"",
   ""2"": ""23:00"",
   ""3"": ""23:00"",
   ""4"": ""23:00"",
   ""5"": ""23:00"",
   ""6"": ""23:00""
  }
 }
]","[2,3,4,5,9,14]",54000,1,Open from 6am - 11pm. Please call to confirm ladies timing.
z_shoaib@hotmail.com,BodyZone Shoaib Gym DHA,Shoaib@125,402,03214806991,A top of the line quality Gym part of the Shoaib Gym Network.,"BodyZone Shoaib Gym First Floor Commercial Plaza 187-Y, opposite to Interwood, Sector Y DHA Phase 3, Lahore, Punjab 54792, Pakistan",31.4745952,74.3860339,162,null,"[{
  ""is_all_day_open"": 0
 },
 {
  ""days"": {
   ""0"": 0,
   ""1"": 1,
   ""2"": 1,
   ""3"": 1,
   ""4"": 1,
   ""5"": 1,
   ""6"": 1
  }
 },
 {
  ""open_time"": {
   ""0"": ""06:00"",
   ""1"": ""06:00"",
   ""2"": ""06:00"",
   ""3"": ""06:00"",
   ""4"": ""06:00"",
   ""5"": ""06:00"",
   ""6"": ""06:00""
  }
 },
 {
  ""close_time"": {
   ""0"": ""23:00"",
   ""1"": ""23:00"",
   ""2"": ""23:00"",
   ""3"": ""23:00"",
   ""4"": ""23:00"",
   ""5"": ""23:00"",
   ""6"": ""23:00""
  }
 }
]","[2,3,4,5,9,14]",54000,1,Open from 6am - 11pm. Please call to confirm ladies timing.
z_shoaib@hotmail.com,Shoaib gym college road,Shoaib@126,403,03214806992,A top of the line quality Gym part of the Shoaib Gym Network.,"Sector C2 Block 14 Sector B 1 Lahore, Punjab 54770, Pakistan",31.4652248,74.29745663,162,null,"[{
  ""is_all_day_open"": 0
 },
 {
  ""days"": {
   ""0"": 0,
   ""1"": 1,
   ""2"": 1,
   ""3"": 1,
   ""4"": 1,
   ""5"": 1,
   ""6"": 1
  }
 },
 {
  ""open_time"": {
   ""0"": ""06:00"",
   ""1"": ""06:00"",
   ""2"": ""06:00"",
   ""3"": ""06:00"",
   ""4"": ""06:00"",
   ""5"": ""06:00"",
   ""6"": ""06:00""
  }
 },
 {
  ""close_time"": {
   ""0"": ""23:00"",
   ""1"": ""23:00"",
   ""2"": ""23:00"",
   ""3"": ""23:00"",
   ""4"": ""23:00"",
   ""5"": ""23:00"",
   ""6"": ""23:00""
  }
 }
]","[2,3,4,5,9,14]",54000,1,Open from 6am - 11pm. Please call to confirm ladies timing.
z_shoaib@hotmail.com,Shoaib Gym Faisal Town,Shoaib@127,404,03214806993,A top of the line quality Gym part of the Shoaib Gym Network.,"36A, B, Block B Faisal Town, Lahore, Punjab, Pakistan",31.48132959,74.32286251,162,null,"[{
  ""is_all_day_open"": 0
 },
 {
  ""days"": {
   ""0"": 0,
   ""1"": 1,
   ""2"": 1,
   ""3"": 1,
   ""4"": 1,
   ""5"": 1,
   ""6"": 1
  }
 },
 {
  ""open_time"": {
   ""0"": ""06:00"",
   ""1"": ""06:00"",
   ""2"": ""06:00"",
   ""3"": ""06:00"",
   ""4"": ""06:00"",
   ""5"": ""06:00"",
   ""6"": ""06:00""
  }
 },
 {
  ""close_time"": {
   ""0"": ""23:00"",
   ""1"": ""23:00"",
   ""2"": ""23:00"",
   ""3"": ""23:00"",
   ""4"": ""23:00"",
   ""5"": ""23:00"",
   ""6"": ""23:00""
  }
 }
]","[2,3,4,5,9,14]",54000,1,Open from 6am - 11pm. Please call to confirm ladies timing.
z_shoaib@hotmail.com,Bodyzone Gym Model Town,Shoaib@128,405,03214806994,A top of the line quality Gym part of the Shoaib Gym Network.,"7k Commercial Market, near alfateh store, Block K Model Town, Lahore, Punjab 54000, Pakistan",31.48573512,74.32471991,162,null,"[{
  ""is_all_day_open"": 0
 },
 {
  ""days"": {
   ""0"": 0,
   ""1"": 1,
   ""2"": 1,
   ""3"": 1,
   ""4"": 1,
   ""5"": 1,
   ""6"": 1
  }
 },
 {
  ""open_time"": {
   ""0"": ""06:00"",
   ""1"": ""06:00"",
   ""2"": ""06:00"",
   ""3"": ""06:00"",
   ""4"": ""06:00"",
   ""5"": ""06:00"",
   ""6"": ""06:00""
  }
 },
 {
  ""close_time"": {
   ""0"": ""23:00"",
   ""1"": ""23:00"",
   ""2"": ""23:00"",
   ""3"": ""23:00"",
   ""4"": ""23:00"",
   ""5"": ""23:00"",
   ""6"": ""23:00""
  }
 }
]","[2,3,4,5,9,14]",54000,1,Open from 6am - 11pm. Please call to confirm ladies timing.
z_shoaib@hotmail.com,Bodyzone Gym Garden Town,Shoaib@129,406,03214806995,A top of the line quality Gym part of the Shoaib Gym Network.,"7k Commercial barkat Market, Alfalah Bank Basement, Garden town Lahore",31.50681257,74.31991339,162,null,"[{
  ""is_all_day_open"": 0
 },
 {
  ""days"": {
   ""0"": 0,
   ""1"": 1,
   ""2"": 1,
   ""3"": 1,
   ""4"": 1,
   ""5"": 1,
   ""6"": 1
  }
 },
 {
  ""open_time"": {
   ""0"": ""06:00"",
   ""1"": ""06:00"",
   ""2"": ""06:00"",
   ""3"": ""06:00"",
   ""4"": ""06:00"",
   ""5"": ""06:00"",
   ""6"": ""06:00""
  }
 },
 {
  ""close_time"": {
   ""0"": ""23:00"",
   ""1"": ""23:00"",
   ""2"": ""23:00"",
   ""3"": ""23:00"",
   ""4"": ""23:00"",
   ""5"": ""23:00"",
   ""6"": ""23:00""
  }
 }
]","[2,3,4,5,9,14]",54000,1,Open from 6am - 11pm. Please call to confirm ladies timing.
z_shoaib@hotmail.com,Bodyzone Gym Wapda town,Shoaib@130,407,03214806996,A top of the line quality Gym part of the Shoaib Gym Network.,"Plot 395, Block D3 Block D 3 Wapda Town Phase 1 WAPDA Town, Lahore, Punjab 54770, Pakistan",31.44708078,74.29107428,162,null,"[{
  ""is_all_day_open"": 0
 },
 {
  ""days"": {
   ""0"": 0,
   ""1"": 1,
   ""2"": 1,
   ""3"": 1,
   ""4"": 1,
   ""5"": 1,
   ""6"": 1
  }
 },
 {
  ""open_time"": {
   ""0"": ""06:00"",
   ""1"": ""06:00"",
   ""2"": ""06:00"",
   ""3"": ""06:00"",
   ""4"": ""06:00"",
   ""5"": ""06:00"",
   ""6"": ""06:00""
  }
 },
 {
  ""close_time"": {
   ""0"": ""23:00"",
   ""1"": ""23:00"",
   ""2"": ""23:00"",
   ""3"": ""23:00"",
   ""4"": ""23:00"",
   ""5"": ""23:00"",
   ""6"": ""23:00""
  }
 }
]","[2,3,4,5,9,14]",54000,1,Open from 6am - 11pm. Please call to confirm ladies timing.
z_shoaib@hotmail.com,BodyZone Gym Gulberg,Shoaib@131,408,03214806997,A top of the line quality Gym part of the Shoaib Gym Network.,"BodyZone Gym Liberty Market Branch Basement Hotel Liberty/Yummy 36, Behind? Shell? Commercial Area Gulberg III, Lahore, Punjab, Pakistan",31.51676417,74.37621832,162,null,"[{
  ""is_all_day_open"": 0
 },
 {
  ""days"": {
   ""0"": 0,
   ""1"": 1,
   ""2"": 1,
   ""3"": 1,
   ""4"": 1,
   ""5"": 1,
   ""6"": 1
  }
 },
 {
  ""open_time"": {
   ""0"": ""06:00"",
   ""1"": ""06:00"",
   ""2"": ""06:00"",
   ""3"": ""06:00"",
   ""4"": ""06:00"",
   ""5"": ""06:00"",
   ""6"": ""06:00""
  }
 },
 {
  ""close_time"": {
   ""0"": ""23:00"",
   ""1"": ""23:00"",
   ""2"": ""23:00"",
   ""3"": ""23:00"",
   ""4"": ""23:00"",
   ""5"": ""23:00"",
   ""6"": ""23:00""
  }
 }
]","[2,3,4,5,9,14]",54000,1,Open from 6am - 11pm. Please call to confirm ladies timing.
z_shoaib@hotmail.com,Shoaib Gym Samanabad,Shoaib@132,409,03214806998,A top of the line quality Gym part of the Shoaib Gym Network.,"Samanabad Town, Lahore, Punjab 54000, Pakistan",31.55449825,74.29024685,162,null,"[{
  ""is_all_day_open"": 0
 },
 {
  ""days"": {
   ""0"": 0,
   ""1"": 1,
   ""2"": 1,
   ""3"": 1,
   ""4"": 1,
   ""5"": 1,
   ""6"": 1
  }
 },
 {
  ""open_time"": {
   ""0"": ""06:00"",
   ""1"": ""06:00"",
   ""2"": ""06:00"",
   ""3"": ""06:00"",
   ""4"": ""06:00"",
   ""5"": ""06:00"",
   ""6"": ""06:00""
  }
 },
 {
  ""close_time"": {
   ""0"": ""23:00"",
   ""1"": ""23:00"",
   ""2"": ""23:00"",
   ""3"": ""23:00"",
   ""4"": ""23:00"",
   ""5"": ""23:00"",
   ""6"": ""23:00""
  }
 }
]","[2,3,4,5,9,14]",54000,1,Open from 6am - 11pm. Please call to confirm ladies timing.
z_shoaib@hotmail.com,Shoaib Gym Chah Miran,Shoaib@133,410,03214806999,A top of the line quality Gym part of the Shoaib Gym Network.,"Chah Miran, Lahore, Punjab, Pakistan",31.58716991,74.34023382,162,null,"[{
  ""is_all_day_open"": 0
 },
 {
  ""days"": {
   ""0"": 0,
   ""1"": 1,
   ""2"": 1,
   ""3"": 1,
   ""4"": 1,
   ""5"": 1,
   ""6"": 1
  }
 },
 {
  ""open_time"": {
   ""0"": ""06:00"",
   ""1"": ""06:00"",
   ""2"": ""06:00"",
   ""3"": ""06:00"",
   ""4"": ""06:00"",
   ""5"": ""06:00"",
   ""6"": ""06:00""
  }
 },
 {
  ""close_time"": {
   ""0"": ""23:00"",
   ""1"": ""23:00"",
   ""2"": ""23:00"",
   ""3"": ""23:00"",
   ""4"": ""23:00"",
   ""5"": ""23:00"",
   ""6"": ""23:00""
  }
 }
]","[2,3,4,5,9,14]",54000,1,Open from 6am - 11pm. Please call to confirm ladies timing.
fitnessfreaks492@gmail.com,Fitness Freak Gym,Freak@12,250,03104408488,A standard quality gym with certifid trainers.,"Township Block-2, Sector C-1, College road, Lajna chowk, Lahore",31.44830713,74.29712029,162,null,"[{
  ""is_all_day_open"": 0
 },
 {
  ""days"": {
   ""0"": 0,
   ""1"": 1,
   ""2"": 1,
   ""3"": 1,
   ""4"": 1,
   ""5"": 1,
   ""6"": 1
  }
 },
 {
  ""open_time"": {
   ""0"": ""16:00"",
   ""1"": ""16:00"",
   ""2"": ""16:00"",
   ""3"": ""16:00"",
   ""4"": ""16:00"",
   ""5"": ""16:00"",
   ""6"": ""16:00""
  }
 },
 {
  ""close_time"": {
   ""0"": ""23:45"",
   ""1"": ""23:45"",
   ""2"": ""23:45"",
   ""3"": ""23:45"",
   ""4"": ""23:45"",
   ""5"": ""23:45"",
   ""6"": ""23:45""
  }
 }
]","[2,3,4,5,9,14]",54000,1,Open from 4pm - midnight. Please call to confirm ladies timing
faisalzahidgcu@gmail.com,Workout Fitness,Workout@12,250,03334179243,"Workout Fitness is equipped with state of the art imported equipments where our well trained certified trainers are always available to fullfill your health & fitness goals. We have two floors, One is dedicated for Cardio and one is for strenght and weight training. We are also offering free Yoga & Aerobics Classes for active gym members.","11-D Commercial market, Near MCB Valancia town, Lahore",31.40962373,74.26030597,162,null,"[{
  ""is_all_day_open"": 0
 },
 {
  ""days"": {
   ""0"": 0,
   ""1"": 1,
   ""2"": 1,
   ""3"": 1,
   ""4"": 1,
   ""5"": 1,
   ""6"": 1
  }
 },
 {
  ""open_time"": {
   ""0"": ""06:00"",
   ""1"": ""06:00"",
   ""2"": ""06:00"",
   ""3"": ""06:00"",
   ""4"": ""06:00"",
   ""5"": ""06:00"",
   ""6"": ""06:00""
  }
 },
 {
  ""close_time"": {
   ""0"": ""23:45"",
   ""1"": ""23:45"",
   ""2"": ""23:45"",
   ""3"": ""23:45"",
   ""4"": ""23:45"",
   ""5"": ""23:45"",
   ""6"": ""23:45""
  }
 }
]","[2,3,4,5,9,14]",54000,1,Co-timing: 6am - 10am. Ladies only: 10am - 5pm. Co-timing: 5pm - midnight
