sajidghouri8899@gmail.com,Muscles Madness Gym and Fitness Center,Muclesm@12,300,3136692333,"A trusted fitness club that guarantees results, and gets the pulse racing","Abdali Road, Khan centre 3rd Floor, Multan, cantt Punjab",30.19198307,71.44348131,162,null,"[{
  ""is_all_day_open"": 0
 },
 {
  ""days"": {
   ""0"": 0,
   ""1"": 1,
   ""2"": 1,
   ""3"": 1,
   ""4"": 1,
   ""5"": 1,
   ""6"": 1
  }
 },
 {
  ""open_time"": {
   ""0"": ""06:00"",
   ""1"": ""06:00"",
   ""2"": ""06:00"",
   ""3"": ""06:00"",
   ""4"": ""06:00"",
   ""5"": ""06:00"",
   ""6"": ""06:00""
  }
 },
 {
  ""close_time"": {
   ""0"": ""19:00"",
   ""1"": ""19:00"",
   ""2"": ""19:00"",
   ""3"": ""19:00"",
   ""4"": ""19:00"",
   ""5"": ""19:00"",
   ""6"": ""19:00""
  }
 }
]","[2,3,4,5,9,14]",60000,1,6am - 7pm
farhan_arshad36@yahoo.com,Cuts and Curves,Cuts@1234,100,3006382260,One of the best Gyms in town with quality machines and certified trainers,"Wapda Colony, Multan, Punjab",30.16313791,71.40746584,162,null,"[{
  ""is_all_day_open"": 0
 },
 {
  ""days"": {
   ""0"": 0,
   ""1"": 1,
   ""2"": 1,
   ""3"": 1,
   ""4"": 1,
   ""5"": 1,
   ""6"": 1
  }
 },
 {
  ""open_time"": {
   ""0"": ""06:00"",
   ""1"": ""06:00"",
   ""2"": ""06:00"",
   ""3"": ""06:00"",
   ""4"": ""06:00"",
   ""5"": ""06:00"",
   ""6"": ""06:00""
  }
 },
 {
  ""close_time"": {
   ""0"": ""23:00"",
   ""1"": ""23:00"",
   ""2"": ""23:00"",
   ""3"": ""23:00"",
   ""4"": ""23:00"",
   ""5"": ""23:00"",
   ""6"": ""23:00""
  }
 }
]","[2,3,4,5,9,14]",60000,1,Co-timing: 6am - 9am. Ladies only: 10am - 4pm. Co-timing: 4pm - 11pm
farhan_arshad36@yahoo.com,Muscle Factory,Muscleff@12,150,3006382260,One of the best Gyms in town with quality machines and certified trainers,"222 Northern Bypass, Model Town A Block A Model Town, Multan, Punjab, Pakistan",30.24310149,71.4997602,162,null,"[{
  ""is_all_day_open"": 0
 },
 {
  ""days"": {
   ""0"": 0,
   ""1"": 1,
   ""2"": 1,
   ""3"": 1,
   ""4"": 1,
   ""5"": 1,
   ""6"": 1
  }
 },
 {
  ""open_time"": {
   ""0"": ""06:00"",
   ""1"": ""06:00"",
   ""2"": ""06:00"",
   ""3"": ""06:00"",
   ""4"": ""06:00"",
   ""5"": ""06:00"",
   ""6"": ""06:00""
  }
 },
 {
  ""close_time"": {
   ""0"": ""23:00"",
   ""1"": ""23:00"",
   ""2"": ""23:00"",
   ""3"": ""23:00"",
   ""4"": ""23:00"",
   ""5"": ""23:00"",
   ""6"": ""23:00""
  }
 }
]","[2,3,4,5,9,14]",60000,1,Co-timing: 6am - 9am. Ladies only: 10am - 4pm. Co-timing: 4pm - 11pm
usmanhashmi555@gmail.com,Titan Gym,Titan@12,50,3087184296,Complete solution of weight loss and weight gain with modern ways and modern equipment.,"Ghousia Colony, beside One Unit Staff Colony, One Unit Colony, Bahawalpur, Punjab 63100",29.38519214,71.70254513,162,null,"[{
  ""is_all_day_open"": 0
 },
 {
  ""days"": {
   ""0"": 0,
   ""1"": 1,
   ""2"": 1,
   ""3"": 1,
   ""4"": 1,
   ""5"": 1,
   ""6"": 1
  }
 },
 {
  ""open_time"": {
   ""0"": ""06:00"",
   ""1"": ""06:00"",
   ""2"": ""06:00"",
   ""3"": ""06:00"",
   ""4"": ""06:00"",
   ""5"": ""06:00"",
   ""6"": ""06:00""
  }
 },
 {
  ""close_time"": {
   ""0"": ""23:00"",
   ""1"": ""23:00"",
   ""2"": ""23:00"",
   ""3"": ""23:00"",
   ""4"": ""23:00"",
   ""5"": ""23:00"",
   ""6"": ""23:00""
  }
 }
]","[2,3,4,5,9,14]",63100,1,6am - 11pm
shahbazshazibwp@gmail.com,Flex Fitness Gym,Flex@12,50,3045316564,One of the best Gyms in town with quality machines and certified trainers,"Yazman Rd, New Islami Colony, Bahawalpur, Punjab 63100",29.35919185,71.69379382,162,null,"[{
  ""is_all_day_open"": 0
 },
 {
  ""days"": {
   ""0"": 0,
   ""1"": 1,
   ""2"": 1,
   ""3"": 1,
   ""4"": 1,
   ""5"": 1,
   ""6"": 1
  }
 },
 {
  ""open_time"": {
   ""0"": ""06:00"",
   ""1"": ""06:00"",
   ""2"": ""06:00"",
   ""3"": ""06:00"",
   ""4"": ""06:00"",
   ""5"": ""06:00"",
   ""6"": ""06:00""
  }
 },
 {
  ""close_time"": {
   ""0"": ""22:00"",
   ""1"": ""22:00"",
   ""2"": ""22:00"",
   ""3"": ""22:00"",
   ""4"": ""22:00"",
   ""5"": ""22:00"",
   ""6"": ""22:00""
  }
 }
]","[2,3,4,5,9,14]",63100,1,6am - 10pm
kahnzadaaimdad3@gmail.com,Smart city gym,Smart@12345,50,3148100412,One of the best Gyms in town with quality machines and certified trainers,"Spinny Road, Quetta, Balochistan",30.19850894,66.96544811,162,null,"[{
  ""is_all_day_open"": 0
 },
 {
  ""days"": {
   ""0"": 0,
   ""1"": 1,
   ""2"": 1,
   ""3"": 1,
   ""4"": 1,
   ""5"": 1,
   ""6"": 1
  }
 },
 {
  ""open_time"": {
   ""0"": ""07:00"",
   ""1"": ""07:00"",
   ""2"": ""07:00"",
   ""3"": ""07:00"",
   ""4"": ""07:00"",
   ""5"": ""07:00"",
   ""6"": ""07:00""
  }
 },
 {
  ""close_time"": {
   ""0"": ""23:00"",
   ""1"": ""23:00"",
   ""2"": ""23:00"",
   ""3"": ""23:00"",
   ""4"": ""23:00"",
   ""5"": ""23:00"",
   ""6"": ""23:00""
  }
 }
]","[2,3,4,5,9,14]",50700,1,7am - 11pm
shaharyarbodyybuilder@gmail.com,Focus Health and Fitness,Focus@12,150,3139141414,Complete solution of weight loss and weight gain with modern ways and modern equipment.,"Makkah Commercial Market, 208-Chak Road, Canal Expy, Eden Valley, Faisalabad, Punjab 38000",31.42995875,73.15298312,162,null,"[{
  ""is_all_day_open"": 0
 },
 {
  ""days"": {
   ""0"": 0,
   ""1"": 1,
   ""2"": 1,
   ""3"": 1,
   ""4"": 1,
   ""5"": 1,
   ""6"": 1
  }
 },
 {
  ""open_time"": {
   ""0"": ""06:00"",
   ""1"": ""06:00"",
   ""2"": ""06:00"",
   ""3"": ""06:00"",
   ""4"": ""06:00"",
   ""5"": ""06:00"",
   ""6"": ""06:00""
  }
 },
 {
  ""close_time"": {
   ""0"": ""23:00"",
   ""1"": ""23:00"",
   ""2"": ""23:00"",
   ""3"": ""23:00"",
   ""4"": ""23:00"",
   ""5"": ""23:00"",
   ""6"": ""23:00""
  }
 }
]","[2,3,4,5,9,14]",38000,1,6am - 11pm
fitmarkclub@gmail.com,Fitmark bodybuilding club,Fitmark@12,50,3073017150,One of the best Gyms in town with quality machines and certified trainers,"Gulshan e Habib, opposite Pheonix School, Qasimabad, Hyderabad, Sindh 71000",25.39366717,68.33817262,162,null,"[{
  ""is_all_day_open"": 0
 },
 {
  ""days"": {
   ""0"": 0,
   ""1"": 1,
   ""2"": 1,
   ""3"": 1,
   ""4"": 1,
   ""5"": 1,
   ""6"": 1
  }
 },
 {
  ""open_time"": {
   ""0"": ""08:30"",
   ""1"": ""08:30"",
   ""2"": ""08:30"",
   ""3"": ""08:30"",
   ""4"": ""08:30"",
   ""5"": ""08:30"",
   ""6"": ""08:30""
  }
 },
 {
  ""close_time"": {
   ""0"": ""23:30"",
   ""1"": ""23:30"",
   ""2"": ""23:30"",
   ""3"": ""23:30"",
   ""4"": ""23:30"",
   ""5"": ""23:30"",
   ""6"": ""23:30""
  }
 }
]","[2,3,4,5,9,14]",71000,1,8.30am - 11.30pm
lionsgoldgym786@gmail.com,Lions Gold Gym,Lions@12,100,3226601330,One of the best Gyms in town with quality machines and certified trainers,"OFFICERS COLONEY 1, Madina Town, Faisalabad, 38000, Pakistan",31.4239434,73.11830061,162,null,"[{
  ""is_all_day_open"": 0
 },
 {
  ""days"": {
   ""0"": 0,
   ""1"": 1,
   ""2"": 1,
   ""3"": 1,
   ""4"": 1,
   ""5"": 1,
   ""6"": 1
  }
 },
 {
  ""open_time"": {
   ""0"": ""06:00"",
   ""1"": ""06:00"",
   ""2"": ""06:00"",
   ""3"": ""06:00"",
   ""4"": ""06:00"",
   ""5"": ""06:00"",
   ""6"": ""06:00""
  }
 },
 {
  ""close_time"": {
   ""0"": ""23:00"",
   ""1"": ""23:00"",
   ""2"": ""23:00"",
   ""3"": ""23:00"",
   ""4"": ""23:00"",
   ""5"": ""23:00"",
   ""6"": ""23:00""
  }
 }
]","[2,3,4,5,9,14]",38000,1,Co-timing: 6am - 9am. Ladies only: 9am - 4pm. Co-timing: 5pm - 11pm
