farooqHaiderN@gmail.com,Ali Golds Ladies and Gents Fitness Center,Ali@12,150,3348006028,One of the best Gyms in town with quality machines and certified trainers,"Shahab Pura Rd, Shahabpura Sialkot, Punjab 51310, Pakistan",32.48991988,74.52028081,162,null,"[{
  ""is_all_day_open"": 0
 },
 {
  ""days"": {
   ""0"": 0,
   ""1"": 1,
   ""2"": 1,
   ""3"": 1,
   ""4"": 1,
   ""5"": 1,
   ""6"": 1
  }
 },
 {
  ""open_time"": {
   ""0"": ""09:00"",
   ""1"": ""09:00"",
   ""2"": ""09:00"",
   ""3"": ""09:00"",
   ""4"": ""09:00"",
   ""5"": ""09:00"",
   ""6"": ""09:00""
  }
 },
 {
  ""close_time"": {
   ""0"": ""17:00"",
   ""1"": ""17:00"",
   ""2"": ""17:00"",
   ""3"": ""17:00"",
   ""4"": ""17:00"",
   ""5"": ""17:00"",
   ""6"": ""17:00""
  }
 }
]","[2,3,4,5,9,14]",51310,1,Ladies only 9am - 5pm
info@oxygen.pk,Oxygen Muscle Factory Sialkot,Oxygenm@12,200,3034567433,"We believe in hard work in the gym. It can change yourself, your personality and boost your confidence.","Clock Tower Lane #1 Netto Fresh Meat Sialkot Cantt. Sialkot, Punjab, Pakistan-51310",32.51618797,74.55871561,162,null,"[{
  ""is_all_day_open"": 0
 },
 {
  ""days"": {
   ""0"": 0,
   ""1"": 1,
   ""2"": 1,
   ""3"": 1,
   ""4"": 1,
   ""5"": 1,
   ""6"": 1
  }
 },
 {
  ""open_time"": {
   ""0"": ""09:00"",
   ""1"": ""09:00"",
   ""2"": ""09:00"",
   ""3"": ""09:00"",
   ""4"": ""09:00"",
   ""5"": ""09:00"",
   ""6"": ""09:00""
  }
 },
 {
  ""close_time"": {
   ""0"": ""17:00"",
   ""1"": ""17:00"",
   ""2"": ""17:00"",
   ""3"": ""17:00"",
   ""4"": ""17:00"",
   ""5"": ""17:00"",
   ""6"": ""17:00""
  }
 }
]","[2,3,4,5,9,14]",51310,1,9am - 5:00pm
fitnessworldryk@gmail.com,Fitness World,Fitnessw@12,250,3334660411,Complete solution of weight loss and weight gain with modern ways and modern equipment.,"Abbasia Town Main Road, Rahim Yar Khan, Punjab 64200",28.42986503,70.30402854,162,null,"[{
  ""is_all_day_open"": 0
 },
 {
  ""days"": {
   ""0"": 0,
   ""1"": 1,
   ""2"": 1,
   ""3"": 1,
   ""4"": 1,
   ""5"": 1,
   ""6"": 1
  }
 },
 {
  ""open_time"": {
   ""0"": ""06:00"",
   ""1"": ""06:00"",
   ""2"": ""06:00"",
   ""3"": ""06:00"",
   ""4"": ""06:00"",
   ""5"": ""06:00"",
   ""6"": ""06:00""
  }
 },
 {
  ""close_time"": {
   ""0"": ""23:00"",
   ""1"": ""23:00"",
   ""2"": ""23:00"",
   ""3"": ""23:00"",
   ""4"": ""23:00"",
   ""5"": ""23:00"",
   ""6"": ""23:00""
  }
 }
]","[2,3,4,5,9,14]",50700,1,Co-timing: 6am - 9am. Ladies only: 10am - 5pm. Co-timing: 6pm - 11pm
thegym@gmail.com,The Gym,Thegym@12,50,3238520969,A standard quality gym with certified trainers and gym instructors.,"Tulsa Road Lalazaar Sherzaman market, Rawalpinidi",33.56623476,73.04676372,162,null,"[{
  ""is_all_day_open"": 0
 },
 {
  ""days"": {
   ""0"": 0,
   ""1"": 1,
   ""2"": 1,
   ""3"": 1,
   ""4"": 1,
   ""5"": 1,
   ""6"": 1
  }
 },
 {
  ""open_time"": {
   ""0"": ""08:00"",
   ""1"": ""08:00"",
   ""2"": ""08:00"",
   ""3"": ""08:00"",
   ""4"": ""08:00"",
   ""5"": ""08:00"",
   ""6"": ""08:00""
  }
 },
 {
  ""close_time"": {
   ""0"": ""23:45"",
   ""1"": ""23:45"",
   ""2"": ""23:45"",
   ""3"": ""23:45"",
   ""4"": ""23:45"",
   ""5"": ""23:45"",
   ""6"": ""23:45""
  }
 }
]","[2,3,4,5,9,14]",54000,1,Co-timing: 8am - 10am. Ladies only: 10am - 3pm. Co-timing: 3pm - midnight
umerpb01@gmail.com,City Sports Fitness Center,City@12,100,3030606090,One of the best Gyms in town with quality machines and certified trainers,"Block A Model Town, Gujranwala, Punjab, Pakistan",32.17635259,74.17793333,162,null,"[{
  ""is_all_day_open"": 0
 },
 {
  ""days"": {
   ""0"": 0,
   ""1"": 1,
   ""2"": 1,
   ""3"": 1,
   ""4"": 1,
   ""5"": 1,
   ""6"": 1
  }
 },
 {
  ""open_time"": {
   ""0"": ""06:00"",
   ""1"": ""06:00"",
   ""2"": ""06:00"",
   ""3"": ""06:00"",
   ""4"": ""06:00"",
   ""5"": ""06:00"",
   ""6"": ""06:00""
  }
 },
 {
  ""close_time"": {
   ""0"": ""23:45"",
   ""1"": ""23:45"",
   ""2"": ""23:45"",
   ""3"": ""23:45"",
   ""4"": ""23:45"",
   ""5"": ""23:45"",
   ""6"": ""23:45""
  }
 }
]","[2,3,4,5,9,14]",52250,1,Ladies only: 10am - 3pm. Co-timing: 4pm - 11pm
imranwahidaa@gmail.com,Citi Fitness Center,Citi@12,300,3096221038,A Well established premium quality gym with certifid trainers.,"Near Opera Cinema? Phase 1? Extension Block Bb Block A Citi Housing, Gujranwala, Punjab, Pakistan",32.07106249,74.18763793,162,null,"[{
  ""is_all_day_open"": 0
 },
 {
  ""days"": {
   ""0"": 0,
   ""1"": 1,
   ""2"": 1,
   ""3"": 1,
   ""4"": 1,
   ""5"": 1,
   ""6"": 1
  }
 },
 {
  ""open_time"": {
   ""0"": ""07:00"",
   ""1"": ""07:00"",
   ""2"": ""07:00"",
   ""3"": ""07:00"",
   ""4"": ""07:00"",
   ""5"": ""07:00"",
   ""6"": ""07:00""
  }
 },
 {
  ""close_time"": {
   ""0"": ""22:00"",
   ""1"": ""22:00"",
   ""2"": ""22:00"",
   ""3"": ""22:00"",
   ""4"": ""22:00"",
   ""5"": ""22:00"",
   ""6"": ""22:00""
  }
 }
]","[2,3,4,5,9,14]",52250,1,Co-timing: 7am - 10am. Ladies only: 10am - 4pm. Co-timing: 4pm - 10pm
imranwahidaa@gmail.com,Citi Fitness Center,Citi@12,300,3096221038,A Well established premium quality gym with certifid trainers.,"CITI Housing Society Satellite Town, Satellite Town Jhelum, Jhelum, Punjab, Pakistan",32.99381795,73.66034515,162,null,"[{
  ""is_all_day_open"": 0
 },
 {
  ""days"": {
   ""0"": 0,
   ""1"": 1,
   ""2"": 1,
   ""3"": 1,
   ""4"": 1,
   ""5"": 1,
   ""6"": 1
  }
 },
 {
  ""open_time"": {
   ""0"": ""09:30"",
   ""1"": ""09:30"",
   ""2"": ""09:30"",
   ""3"": ""09:30"",
   ""4"": ""09:30"",
   ""5"": ""09:30"",
   ""6"": ""09:30""
  }
 },
 {
  ""close_time"": {
   ""0"": ""22:00"",
   ""1"": ""22:00"",
   ""2"": ""22:00"",
   ""3"": ""22:00"",
   ""4"": ""22:00"",
   ""5"": ""22:00"",
   ""6"": ""22:00""
  }
 }
]","[2,3,4,5,9,14]",49600,1,Ladies: 9.30am - 3.30pm. Gents: 4pm - 10pm
imranwahidaa@gmail.com,Citi Fitness Center,Citi@12,300,3096221038,A Well established premium quality gym with certifid trainers.,"Citi Mart road, Citi Housing Society Madharian Wala Kalar, Sialkot, Punjab 51040, Pakistan",32.42205267,74.47206226,162,null,"[{
  ""is_all_day_open"": 0
 },
 {
  ""days"": {
   ""0"": 0,
   ""1"": 1,
   ""2"": 1,
   ""3"": 1,
   ""4"": 1,
   ""5"": 1,
   ""6"": 1
  }
 },
 {
  ""open_time"": {
   ""0"": ""09:30"",
   ""1"": ""09:30"",
   ""2"": ""09:30"",
   ""3"": ""09:30"",
   ""4"": ""09:30"",
   ""5"": ""09:30"",
   ""6"": ""09:30""
  }
 },
 {
  ""close_time"": {
   ""0"": ""22:00"",
   ""1"": ""22:00"",
   ""2"": ""22:00"",
   ""3"": ""22:00"",
   ""4"": ""22:00"",
   ""5"": ""22:00"",
   ""6"": ""22:00""
  }
 }
]","[2,3,4,5,9,14]",51310,1,Ladies: 9.30am - 3.30pm. Gents: 4pm - 10pm
bilal_arbab@outlook.com,Club W Fitness Gym for Ladies and Gents Peshawar,clubw@12,200,3005940051,One of the best Gyms in town with quality machines and certified trainers,"old bara road near thana kabab opposite post office colony, University Town, Peshawar, Khyber Pakhtunkhwa, Pakistan",33.99576524,71.50292669,162,null,"[{
  ""is_all_day_open"": 0
 },
 {
  ""days"": {
   ""0"": 0,
   ""1"": 1,
   ""2"": 1,
   ""3"": 1,
   ""4"": 1,
   ""5"": 1,
   ""6"": 1
  }
 },
 {
  ""open_time"": {
   ""0"": ""11:00"",
   ""1"": ""11:00"",
   ""2"": ""11:00"",
   ""3"": ""11:00"",
   ""4"": ""11:00"",
   ""5"": ""11:00"",
   ""6"": ""11:00""
  }
 },
 {
  ""close_time"": {
   ""0"": ""18:00"",
   ""1"": ""18:00"",
   ""2"": ""18:00"",
   ""3"": ""18:00"",
   ""4"": ""18:00"",
   ""5"": ""18:00"",
   ""6"": ""18:00""
  }
 }
]","[2,3,4,5,9,14]",25000,1,11am - 6pm
sajidghouri8899@gmail.com,Muscles Madness Gym And Fitness Center,Muclesm@12,300,3136692333,"A trusted fitness club that guarantees results, and gets the pulse racing!","Abdali Road, Khan centre 3rd Floor, Multan, cantt Punjab",30.19198307,71.44348131,162,null,"[{
  ""is_all_day_open"": 0
 },
 {
  ""days"": {
   ""0"": 0,
   ""1"": 1,
   ""2"": 1,
   ""3"": 1,
   ""4"": 1,
   ""5"": 1,
   ""6"": 1
  }
 },
 {
  ""open_time"": {
   ""0"": ""06:00"",
   ""1"": ""06:00"",
   ""2"": ""06:00"",
   ""3"": ""06:00"",
   ""4"": ""06:00"",
   ""5"": ""06:00"",
   ""6"": ""06:00""
  }
 },
 {
  ""close_time"": {
   ""0"": ""19:00"",
   ""1"": ""19:00"",
   ""2"": ""19:00"",
   ""3"": ""19:00"",
   ""4"": ""19:00"",
   ""5"": ""19:00"",
   ""6"": ""19:00""
  }
 }
]","[2,3,4,5,9,14]",60000,1,6am - 7pm
farhan_arshad36@yahoo.com,Cuts and Curves,Cuts@1234,100,3006382260,One of the best Gyms in town with quality machines and certified trainers,"Wapda Colony, Multan, Punjab",30.16313791,71.40746584,162,null,"[{
  ""is_all_day_open"": 0
 },
 {
  ""days"": {
   ""0"": 0,
   ""1"": 1,
   ""2"": 1,
   ""3"": 1,
   ""4"": 1,
   ""5"": 1,
   ""6"": 1
  }
 },
 {
  ""open_time"": {
   ""0"": ""06:00"",
   ""1"": ""06:00"",
   ""2"": ""06:00"",
   ""3"": ""06:00"",
   ""4"": ""06:00"",
   ""5"": ""06:00"",
   ""6"": ""06:00""
  }
 },
 {
  ""close_time"": {
   ""0"": ""23:00"",
   ""1"": ""23:00"",
   ""2"": ""23:00"",
   ""3"": ""23:00"",
   ""4"": ""23:00"",
   ""5"": ""23:00"",
   ""6"": ""23:00""
  }
 }
]","[2,3,4,5,9,14]",60000,1,Co-timing: 6am - 9am. Ladies only: 10am - 4pm. Co-timing: 4pm - 11pm
farhan_arshad36@yahoo.com,Muscle Factory,Muscleff@12,150,3006382260,One of the best Gyms in town with quality machines and certified trainers,"222 Northern Bypass, Model Town A Block A Model Town, Multan, Punjab, Pakistan",30.24310149,71.4997602,162,null,"[{
  ""is_all_day_open"": 0
 },
 {
  ""days"": {
   ""0"": 0,
   ""1"": 1,
   ""2"": 1,
   ""3"": 1,
   ""4"": 1,
   ""5"": 1,
   ""6"": 1
  }
 },
 {
  ""open_time"": {
   ""0"": ""06:00"",
   ""1"": ""06:00"",
   ""2"": ""06:00"",
   ""3"": ""06:00"",
   ""4"": ""06:00"",
   ""5"": ""06:00"",
   ""6"": ""06:00""
  }
 },
 {
  ""close_time"": {
   ""0"": ""23:00"",
   ""1"": ""23:00"",
   ""2"": ""23:00"",
   ""3"": ""23:00"",
   ""4"": ""23:00"",
   ""5"": ""23:00"",
   ""6"": ""23:00""
  }
 }
]","[2,3,4,5,9,14]",60000,1,Co-timing: 6am - 9am. Ladies only: 10am - 4pm. Co-timing: 4pm - 11pm
usmanhashmi555@gmail.com,Titan Gym,Titan@12,50,3087184296,Complete solution of weight loss and weight gain with modern ways and modern equipment.,"Ghousia Colony, beside One Unit Staff Colony, One Unit Colony, Bahawalpur, Punjab 63100",29.38519214,71.70254513,162,null,"[{
  ""is_all_day_open"": 0
 },
 {
  ""days"": {
   ""0"": 0,
   ""1"": 1,
   ""2"": 1,
   ""3"": 1,
   ""4"": 1,
   ""5"": 1,
   ""6"": 1
  }
 },
 {
  ""open_time"": {
   ""0"": ""06:00"",
   ""1"": ""06:00"",
   ""2"": ""06:00"",
   ""3"": ""06:00"",
   ""4"": ""06:00"",
   ""5"": ""06:00"",
   ""6"": ""06:00""
  }
 },
 {
  ""close_time"": {
   ""0"": ""23:00"",
   ""1"": ""23:00"",
   ""2"": ""23:00"",
   ""3"": ""23:00"",
   ""4"": ""23:00"",
   ""5"": ""23:00"",
   ""6"": ""23:00""
  }
 }
]","[2,3,4,5,9,14]",63100,1,6am - 11pm
shahbazshazibwp@gmail.com,Flex Fitness Gym,Flex@12,50,3045316564,One of the best Gyms in town with quality machines and certified trainers,"Yazman Rd, New Islami Colony, Bahawalpur, Punjab 63100",29.35919185,71.69379382,162,null,"[{
  ""is_all_day_open"": 0
 },
 {
  ""days"": {
   ""0"": 0,
   ""1"": 1,
   ""2"": 1,
   ""3"": 1,
   ""4"": 1,
   ""5"": 1,
   ""6"": 1
  }
 },
 {
  ""open_time"": {
   ""0"": ""06:00"",
   ""1"": ""06:00"",
   ""2"": ""06:00"",
   ""3"": ""06:00"",
   ""4"": ""06:00"",
   ""5"": ""06:00"",
   ""6"": ""06:00""
  }
 },
 {
  ""close_time"": {
   ""0"": ""22:00"",
   ""1"": ""22:00"",
   ""2"": ""22:00"",
   ""3"": ""22:00"",
   ""4"": ""22:00"",
   ""5"": ""22:00"",
   ""6"": ""22:00""
  }
 }
]","[2,3,4,5,9,14]",63100,1,6am - 10pm
kahnzadaaimdad3@gmail.com,Smart city gym,Smart@12345,50,3148100412,One of the best Gyms in town with quality machines and certified trainers,"Spinny Road, Quetta, Balochistan",30.19850894,66.96544811,162,null,"[{
  ""is_all_day_open"": 0
 },
 {
  ""days"": {
   ""0"": 0,
   ""1"": 1,
   ""2"": 1,
   ""3"": 1,
   ""4"": 1,
   ""5"": 1,
   ""6"": 1
  }
 },
 {
  ""open_time"": {
   ""0"": ""07:00"",
   ""1"": ""07:00"",
   ""2"": ""07:00"",
   ""3"": ""07:00"",
   ""4"": ""07:00"",
   ""5"": ""07:00"",
   ""6"": ""07:00""
  }
 },
 {
  ""close_time"": {
   ""0"": ""23:00"",
   ""1"": ""23:00"",
   ""2"": ""23:00"",
   ""3"": ""23:00"",
   ""4"": ""23:00"",
   ""5"": ""23:00"",
   ""6"": ""23:00""
  }
 }
]","[2,3,4,5,9,14]",50700,1,7am - 11pm
shaharyarbodyybuilder@gmail.com,Focus Health and Fitness,Focus@12,150,3139141414,Complete solution of weight loss and weight gain with modern ways and modern equipment.,"makkah commercial market,208-chak road,canal expy,eden valley,faisalabad,punjab38000",31.42995875,73.15298312,162,null,"[{
  ""is_all_day_open"": 0
 },
 {
  ""days"": {
   ""0"": 0,
   ""1"": 1,
   ""2"": 1,
   ""3"": 1,
   ""4"": 1,
   ""5"": 1,
   ""6"": 1
  }
 },
 {
  ""open_time"": {
   ""0"": ""06:00"",
   ""1"": ""06:00"",
   ""2"": ""06:00"",
   ""3"": ""06:00"",
   ""4"": ""06:00"",
   ""5"": ""06:00"",
   ""6"": ""06:00""
  }
 },
 {
  ""close_time"": {
   ""0"": ""23:00"",
   ""1"": ""23:00"",
   ""2"": ""23:00"",
   ""3"": ""23:00"",
   ""4"": ""23:00"",
   ""5"": ""23:00"",
   ""6"": ""23:00""
  }
 }
]","[2,3,4,5,9,14]",38000,1,6am - 11pm
fitmarkclub@gmail.com,Fitmark bodybuilding club,Fitmark@12,50,3073017150,One of the best Gyms in town with quality machines and certified trainers,"Gulshan-e-Habib, opposite pheonix school, Qasimabad, Hyderabad, Sindh 71000",25.39366717,68.33817262,162,null,"[{
  ""is_all_day_open"": 0
 },
 {
  ""days"": {
   ""0"": 0,
   ""1"": 1,
   ""2"": 1,
   ""3"": 1,
   ""4"": 1,
   ""5"": 1,
   ""6"": 1
  }
 },
 {
  ""open_time"": {
   ""0"": ""08:30"",
   ""1"": ""08:30"",
   ""2"": ""08:30"",
   ""3"": ""08:30"",
   ""4"": ""08:30"",
   ""5"": ""08:30"",
   ""6"": ""08:30""
  }
 },
 {
  ""close_time"": {
   ""0"": ""23:30"",
   ""1"": ""23:30"",
   ""2"": ""23:30"",
   ""3"": ""23:30"",
   ""4"": ""23:30"",
   ""5"": ""23:30"",
   ""6"": ""23:30""
  }
 }
]","[2,3,4,5,9,14]",71000,1,8.30am - 11.30pm
lionsgoldgym786@gmail.com,Lions Gold Gym,Lions@12,100,3226601330,One of the best Gyms in town with quality machines and certified trainers,"OFFICERS COLONEY #1, Madina Town, Faisalabad, 38000, Pakistan",31.4239434,73.11830061,162,null,"[{
  ""is_all_day_open"": 0
 },
 {
  ""days"": {
   ""0"": 0,
   ""1"": 1,
   ""2"": 1,
   ""3"": 1,
   ""4"": 1,
   ""5"": 1,
   ""6"": 1
  }
 },
 {
  ""open_time"": {
   ""0"": ""06:00"",
   ""1"": ""06:00"",
   ""2"": ""06:00"",
   ""3"": ""06:00"",
   ""4"": ""06:00"",
   ""5"": ""06:00"",
   ""6"": ""06:00""
  }
 },
 {
  ""close_time"": {
   ""0"": ""23:00"",
   ""1"": ""23:00"",
   ""2"": ""23:00"",
   ""3"": ""23:00"",
   ""4"": ""23:00"",
   ""5"": ""23:00"",
   ""6"": ""23:00""
  }
 }
]","[2,3,4,5,9,14]",38000,1,Co-timing: 6am - 9am. Ladies only: 9am - 4pm. Co-timing: 5pm - 11pm
