Waseem,Hassan,hsgym6throad@gmail.com,162,2,Main,Lahore,3215109905,Hard Stone Gym,123
Farooq,Haider,farooqHaiderN@gmail.com,162,2,Main,Lahore,3348006028,Ali Gold Ladies and Gents Fitness Center,123
Shoaib,Ul-Hassan,info@oxygen.pk,162,2,Main,Lahore,3034567433,Oxygen Muscle Factory Sialkot,123
Mohid,Tahir,fitnessworldryk@gmail.com,162,2,Main,Lahore,3334660411,Fitness World,123
Majid,Khan,thegym@gmail.com,162,2,Main,Lahore,3238520969,The Gym,123
Umer,siddique,umerpb01@gmail.com,162,2,Main,Lahore,3030606090,City Sports Fitness Center,123
Imran,Wahid,imranwahidaa@gmail.com,162,2,Main,Lahore,3096221038,Citi Fitness Center,123
Muhammad,Bilal,bilal_arbab@outlook.com,162,2,Main,Lahore,3005940051,Club W Fitness gym for Ladies And Gents Peshawar,123
Sajid,ghouri,sajidghouri8899@gmail.com,162,2,Main,Lahore,3136692333,Muscles Madness Gym And Fitness Center,123
Farhan,arshad,farhan_arshad36@yahoo.com,162,2,Main,Lahore,3006382260,Cuts and Curves,123
Usman,Hashmi,usmanhashmi555@gmail.com,162,2,Main,Lahore,3087184296,Titan Gym,123
Shahbaz,A,shahbazshazibwp@gmail.com,162,2,Main,Lahore,3045316564,Flex Fitness Gym,123
Maqsood,A,kahnzadaaimdad3@gmail.com,162,2,Main,Lahore,3148100412,Smart city gym,123
shahriyar,khan,shaharyarbodyybuilder@gmail.com,162,2,Main,Lahore,3139141414,focus health and fitness,123
Umair,Abas,fitmarkclub@gmail.com,162,2,Main,Lahore,3073017150,Fitmark bodybuilding club,123
gazanfar,ali,lionsgoldgym786@gmail.com,162,2,Main,Lahore,3226601330,Lions Gold Gym,123
