Adil,Abbas,adil13335@hotmail.com,162,2,Main,Karachi,3233335524,GymShim,NA
Shahid,Ishaq,shahidishaq007@gmail.com,162,2,Main,Karachi,3054186640,Rameez PowerZone,NA
Shomoail,Sohail,shomoail111@gmail.com,162,2,Main,Karachi,3310298785,Urban Club,NA
Muhammad,Fahad,fahadabbubaker@gmail.com,162,2,Main,Karachi,3458907789,Raise the Bar,NA
Fazal,Elahi,fazalfitness@gmail.com,162,2,Main,Karachi,3042020000,Genetix,NA
Aness,Mumtaz,shzeel123@gmail.com,162,2,Main,Karachi,3431169396,Muscle Unit,NA
Alameen,A,alameenexecutive@hotmail.com,162,2,Main,Karachi,3218902090,Fight Club,NA
Uzair,Irfan,uzairirfan70@gmail.com,162,2,Main,Karachi,3142043006,Body Project Gym,NA
Ruhail,Khalidi,ruhailkhalidi@gmail.com,162,2,Main,Karachi,3337523568,Edge Physique,NA
Shamvil,Ahmed,thebravogymII@gmail.com,162,2,Main,Karachi,3312443132,Bravo Gym ll,NA
Abdullah,Hussain,theenergetix06@gmail.com,162,2,Main,Karachi,3212329916,Energetix,NA
Muhammad,Ramzan,r9564816@gmail.com,162,2,Main,Karachi,3452085038,Metroflux Gym,NA
Chaudry,Farhan,chaudry.farhan@yahoo.com,162,2,Main,Karachi,3207000052,Pehelwan Gym,NA
Omar,Qadir,omee_33@hotmail.com,162,2,Main,Karachi,3008205480,My Fitness 24/7,NA
Sahbih,Haider,haidersyed968@Gmail.com,162,2,Main,Karachi,3154114429,GAINS,NA
Khayam,butt,sony.khayam.butt@Gmail.com,162,2,Main,Karachi,3214510098,KB fitness,NA
Asad,Ali,madiha350@gmail.com,162,2,Main,Karachi,3039510103,Right Now Fitness,NA
Wakeel,Farooqui,wakeelfarooqui@gmail.com,162,2,Main,Karachi,3332165644,The Gym Get Lean - Saddar,NA
