"ID","First Name","Last Name","Email","Mobile No"
"489","Bhawna","Sharma","sbha7294@gmail.com","9653094299"
"488","Rashmi","verma","rashmi150798@gmail.com","7651840399"
"487","Pawan Kumar","Sahu","pawansahu1995@gmail.com","9005785050"
"486","Shah","Alam","shahalam7794@gmail.com","9956806633"
"485","insha","adeeb","adeebinsha@gmail.com","9696843340"
"484","rashid","mamoon","mamoon209306@gmain.com","7843997565"
"483","Anushka","Maurya","anumau10b1@gmail.com","7355226975"
"482","Abhishek","kamal","abhishekkamal2012@gmail.com","8707099570"
"481","Mukul","Sbarma","msmukulsharma19992015@gmail.com","8791424574"
"480","Mohammad","Ansar","mohdansar42@gmail.com","9412544154"
"479","Yash","rajpoot","Gyanprakashchauhan1999@gmail.com","6307966285"
"478","Kanishka","sonker","kanishkasonker25@gmail.com","8299630071"
"477","pooja","tiwari","tiwarin112296@gmail.com","9565861304"
"476","faisal","quraishii","faisalquraishi429@gmail.com","8433019744"
"475","Imtiyaz","Ahmad","soft9717@gmail.com","9069169514"
"474","sajid","khan","sajidkhan@gmail.com","9720279918"
"473","ASHUTOSH","KUMAR","akumar261299@gmail.com","8948470384"
"472","Rupali","Yadav","ry4163223@gmail.com","6394308958"
"471","shubham","yadav","yadav9889443660@gmail.com","08009736207"
"470","m","k","mohankus12@gmail.com","8787083184"
"469","Ramveer","paswan","ramveerpaswan293@gmail.com","8601259598"
"468","Kaish","Ansari","kaish.ansari124@gmail.com","9565541512"
"467","Kabir","Suresh","lucknowdelhi24@gmail.com","6397009680"
"466","Shipra","Patel","shipra630726@gmail.com","6307262398"
"465","mohd","awsaf","awsafkhan1997@gmail.com","9636166187"
"464","arjun","singh","014arjunm@gmail.com","9369886913"
"463","suraj","khare","sksurajkhare3590@gmail.com","9696766363"
"462","Nilesh","yadav","nileshyadav20795@gmail.com","9616419523"
"461","vinod","sir","binod@gmail.com","9716634343"
"460","princi","jaiswal","jaiswalkkt15@gmail.com","8957706952"
"459","shubham chand","kushwaha","shubhamck12345@gmail.com","9521611595"
"458","NITESH KUMAR","YADAV","niteshyadav0321@gmail.com","8934994499"
"457","Talat","Zehra","aliabbaskhan37@gmail.com","8960530423"
"456","jitendra","kumar","ykjitendra4@gmail.com","9559914642"
"455","Mamta","Gargvanshi","mamta@gmail.com","7052827877"
"454","Aarush","Aryadav","aarusharyadav@gmail.com","9636738438"
"453","Anees","khan","md.anees.kingkhan1@gmail.com","8960427296"
"452","Deepak","verma","deepakpatel95904@gmail.com","8429401824"
"451","Prateek","Biswas","prateekvishwasdp@gmail.com","6378572843"
"450","Vijay","Rajbhar","vijayrajjlp@gmail.com","7052391369"
"449","Abhishek","Singh","abhisheksingh978350@gmail.com","7408197587"
"448","Omprakash","Rajpoot","omrajmawai@gmail.com","6387487084"
"447","ambuj","yadav","ambujyadav242@gmail.com","7007330185"
"446","shitanshu","pandey","Shitanshupandet1996@gmail.com","9369817299"
"445","Yuvraj","Singh","rockstarboy2003@gmail.com","09450740133"
"444","Shamhser","Alam","alamshamsher799@gmail.com","8005412628"
"443","Abhishek","Gond","99.abhishekgond@gmail.com","8808458622"
"442","Saurabh","kumar","saurabhsardar8423@gmail.com","07393835591"
"441","Vikas","Kumar","bikkyvikas@gmail.com","7309274024"
"440","Avinash","Sahani","avinash.kumar2336@gmail.com","8896552611"
"439","SHREY","SHUKLA","shrey06dr@gmail.com","6393377005"
"438","Susheel","Shukla","susheelrs02@gmail.com","8874522500"
"437","Mohammad","Kaif","kaifafzal999@gmail.com","7390066785"
"436","Supriya","Dubey","Suoriyadubey478@gmail.com","8881081794"
"435","VIPUL","KUSHWAHA","vipulkushwaha876@gmail.com","8957717351"
"434","PRAVIN","CHAUHAN","god.devil786@gmail.com","7376956662"
"433","Anuj","singh","gaganrajput071@gmail.com","8948976463"
"432","Anurag","kushwaha","anuragkushwaha227@gmail.com","9616670224"
"431","Rijvan","hasan","hasanrijvan16@gmail.com","9935503308"
"430","pawan","rao","pawankumar9118500@gmail.com","9696507810"
"429","Akhilesh","Kumar","ak6201773@gmail.com","6394962676"
"428","Krishna Chandra","Patel","krishnachandrapatel4233@gmail.com","9696285254"
"427","Akash","Maurya","am7299942@gmail.com","7705940066"
"426","Aniket","Jaiswal","jaiswalaniket2003@gmail.com","8233064950"
"425","Ashutosh","kumar","ashutoshkanpur10595@gmail.com","9519370951"
"424","prayag","dutt upadhyay","prayag987654321@gmail.com","9021410695"
"423","sachdeva","Shekhar","mailmtka@gmail.com","9876783112"
"422","atul","verma","atulverma945218@gmail.com","9452041340"
"421","Ajay","kumar","ajaykumr256@gmail.com","7408471675"
"420","amit","bharti","bhartiamitaman1000@gmail.com","7618378474"
"419","Aman","Diwakar","ar251386@gmail.com","9026211287"
"418","rashmi","mishra","mishrarsanjay12@gmail.com","9621583259"
"417","suraj","patel","surajpatel070798@gmail.com","9506526113"
"416","Surendra","Rana","mahendra3598rana@gmail.com","7080450313"
"415","prince","rajput","kprince223101@gmail.com","8604967208"
"414","amit","kumar","kamit8553@gmail.com","8840288505"
"413","Manoj","chauhan","manumanojchauhan108@gmail.com","9838300399"
"412","Arun","Gupta","arunkumargupta10008@gmail.com","7379298525"
"411","Ankit","Mishra","ankitmishra8884@gmail.com","7068220839"
"410","Kajal","Verma","kajalverma.8081@gmail.com","8081769194"
"409","shalu","shahu","shalushahu45@gmail.com","7905496133"
"408","Yuvraj","Singh","yuvisinha03@gmail.com","8564923598"
"407","Pranjal","pandey","pranj.pandey@gmail.com","7236948416"
"406","sumit","saxena","amitsaxena56018@gmail.com","9839722760"
"405","Badal","Kamble","dr.kbaddal@gmail.com","7559391831"
"404","Anand","Verdhan","anandverdhan241406@gmail.com","7239014523"
"403","Isha","Singh","coolisha75@gmail.com","7525073642"
"402","Amit","Kumar","motired07@gmail.com","8318365755"
"401","Yash Kumar","Shukla","shuklayashbadalpapaji@gmail.com","7380703821"
"400","Anurag","maurya","manurag282@gmail.com","8726676365"
"399","anand","kumar","anandprakashbbk123@gmail.com","8528384213"
"398","rahul kumar","jaiswara","rahulkumarjaiswara362@gmail.com","9628296065"
"397","ashish","kumar","ashishkumar967055@gmail.com","9670550557"
"396","vidya","shankar","harshvardhan443@gmail.com","6306726583"
"395","Anupam","Maurya","anupammaurya2000@gmail.com","9415735238"
"394","Aleena","Siddiqui","aleenasiddiqui0901@gmail.com","6388964650"
"393","sandeep","Gupta","idrsandeep4@gmail.com","9628804852"
"392","Manvendra","Srivastava","manvendra8253@gmail.com","6392134200"
"391","Shree","Gopal","sgopal951@gmail.com","9451568895"
"390","mr.","thakla","santosh.thakla@gmail.com","6306020058"
"389","adarsh","kumar","adarshkumar999108@gmail.com","6387390892"
"388","Yuvraj","Singh","yuvisinha03@gmail.com","08564923598"
"387","Amit","Pal","apal23396@gmail.com","6306499109"
"386","dhirendra","singh","1997dhirendrasingh.kumar@gmail.com","9076976350"
"385","Ashutosh","Yadav","ashutoshyadavallen@gmail.com","9935486499"
"384","Ashutosh","singh","boss232284@gmail.com","7705859762"
"383","Mariyam","Zubair","mariyam.zubair28@gmail.com","0509871361"
"382","Inzamamul","hasnain","hasnain.arinzi@gmail.com","7234934097"
"381","rahul","Panwar","rahulpanwar3111@gmail.com","9760673111"
"380","Mohd","Arshad","arshad532000@email.com","9616806531"
"379","md","mohsin","mohsinashraf7@gmail.com","9335418828"
"378","vivek","maurya","vpm8894@gmail.com","7272816609"
"377","md","tauheed Khan","Tauheedmd03@gail.com","9169879263"
"376","shikha","gautam","gautamshikha987@gmail.com","8182038234"
"375","Rajesh","kumar","rajeshkumarb456@gmail.com","09455360749"
"374","rajshekhar","singh","raj101921@gmail.com","6388987044"
"373","preeti","singh","preetis8874@gmail.com","9628868809"
"372","rohit","kumar","rohitkannoujiya7054426700@gmail.com","9369262144"
"371","Ashish","yadav","ay2998040@gmail.com","9044050144"
"370","prem","prakash yadav","premyadav083@gmail.com","8604188449"
"369","Prashant","Singh","prashantsingh1292000@gmail.com","7985851916"
"368","Mohd Sajid Ali","Nizamee","sjdnizamee@gmail.com","9169790124"
"367","Shashikant","kant","kants9955@gmail.com","9889435260"
"366","sagar","teejwal","sagarpal61431@gmail.com","6396931112"
"365","ASHWANI","YADAV","bunny7017@gmail.com","7706909192"
"364","manoj Kumar","gupt","manojgupta3795@gmail.com","6306454797"
"363","Vinay","kumar","Vinay200898@gmail.com","8574218174"
"362","manish","kumar","manishkumar.mk562@gmail.com","6307623850"
"361","shashi","kanti","shashikanti0077@gmail.com","9454765422"
"360","Siddharth","Singh","www.siddhartsingh14072002@gmail.com","7704047048"
"359","Manish","Verma","manishverma6701@gmail.com","9161263541"
"358","sunil","yadav","sunilyadav22393@gmail.com","6306745003"
"357","Mayank","Verma","akankshav1499@gmail.com","9451646716"
"356","susheel","patel","susheelsdr@gmail.com","8696088961"
"355","Saurabh","NISHAD","sourabh9628065119@gmail.com","9628065119"
"354","mohd","Nazim","nazimmohd735@gmail.com","8979269134"
"353","Vinay","Kumar","kumarvinay9455@gmail.com","9455604875"
"352","sonu","kumar","sonu080498@gmail.com","8112416966"
"351","Moin","Ashraf","moinashraf11786@gmail.com","6399238606"
"350","Monu","Kumar","monukumar06119@gmail.com","9628276801"
"349","mohd","Nazim","nazimmohd735@gmail.com","7535996922"
"348","Sanjay","Yadav","yadav06794@gmail.com","7786065629"
"347","amar","singh","amarsingh9627131110@gmail.com","7505529370"
"346","Mohd","Arshad","arshadansari5001@gmail.com","8218692982"
"345","Satyam","tripathi","satyamtripathi56@gmail.com","6388591962"
"344","ashwani","Verma","ashwanivermaz666@gmail.com","6307172018"
"343","surender","maurya","surendermaurya589@gmail.com","8958309865"
"342","Hindu Adesh","Dixit","adeshdixit108@gmail.com","6307643450"
"341","Vishal","Dev","vdev84239@gmail.com","6388214172"
"340","Manas","Gupta","manasgupta9984@gmail.com","9984384380"
"339","SUSHANT","maurya","windowless121@gmail.com","6388757872"
"338","Harshit","Gupta","guptajihar000@gmail.com","9125733266"
"337","Abhinav","Jaiswal","abhijaiswal800@gmail.com","8005010656"
"336","Kushal","Mishra","kushaljnv66@gmail.com","9140769081"
"335","Pragati","bajpai","pragatibajpai2001@gmail.co","7607540688"
"334","Anubhavjeet","singh","anubhavjeetsingh@gmail.com","8923632934"
"333","Dharmendra","Singh","dharmendrakumarsingh2310@gmail.com","6397834501"
"332","pooja","arya","poojaknp54@gmail.com","7458892089"
"331","mukesh","mishra","cooljeetu.mukesh@gmail.com","8400000073"
"330","Karan","rathor","karanrathor9794@icloud.com","9870523763"
"329","Deepak","Yadav","omdeepak2000@gmail.com","8382822168"
"328","pankaj","kumar","pankaj70548730email@gmail.com","6387710812"
"327","sohel","ali","sohelali459@gmail.com","9936282736"
"326","vijay","chaudhary","vijaycha9818@gmail.com","7238035949"
"325","Annpurna","Goswami","reiyukaivns@gmail.com","9389290852"
"324","Mohd haseeb","haseeb","mohdhasibhasib510@gmail.com","9026349877"
"323","Ujjwal","ujjwal","ujjwalchaturvedi48@gmail.com","8354977144"
"322","anubhav","singh","anubhavbhadoriya121@gmail.com","9598100971"
"321","Yasir","Iraqui","iraquiyasir@gmail.com","9517172096"
"320","Fazalurrahman","Fazlurrahman","Falurrahman@gmail.com","8948237172"
"319","sp","yadav","spyadav11197@gmail.com","9873464958"
"318","Shubhi","Gupta","suryagupta1234@gmail.com","8218859460"
"317","Aqsa","Ansari","aqsa53976@gmail.com","7408211341"
"316","Saif","Ali","mohammadsaifa01@gmail.com","9305427680"
"315","sandeep","gupta","guptasandeep9935@gmail.com","9170874042"
"314","esha","tiwari","eshatiwari1995@gmail.com","6392859734"
"313","Atul","Tiwari","atultiwari6390@gmail.com","7084933036"
"312","Aman","Kumar","kumaraman3547@gmail.com","7007207837"
"311","Ravi","Ranjan","raviranjan1000001@gmail.com","06203583762"
"310","Lavkush","chaudhary","lavkushchaudhary191@gmail.com","9119856321"
"309","raj","bahadur","rajbahadur636@gmail.com","7007057310"
"308","Nand","kishor","karansharma2252@gmail.com","7297978027"
"307","Kaustubh","Dwivedi","kaustubhdwivedi33@gmail.com","9026767656"
"306","Ajeet","Rai","ajeetrai4321@gmail.com","7393830016"
"305","Deeksha","sachan","deekshasachan7212@gmail.com","9161354481"
"304","Mohd Tauheed","Ansari","ansaritauheed9856@gnail.com","7408991981"
"303","Raghuvansh","Tiwari","rv25tiwari@gmail.com","8840912081"
"302","ranu","patel","patelranu362@gmail.com","8081834199"
"301","Aryan","Gupta","virus8115@gmail.com","9889264767"
"300","vishal","kumat","vishalhigh@gmail.com","9506945050"
"299","Krishna kumar","Bind","krishanakumarbind123@gmail.com","8574415759"
"298","mahesh","gaur","maheshgaur@newlightinstitute.in","9565140705"
"297","rahul","gupta","rg7627859@gmail.com","8957066808"
"296","Anurag","Kumar","anuragk3191@gmail.com","6388538096"
"295","jyoti","mishra","jyotimishra@newlightinstitute.in","8052443571"
"294","sampada","singh","rekhajaimangalsingh@gmail.com","9807393887"
"293","Ata Ur Rahman","Ansari","arrahman.122rahman@gmail.com","9720663680"
"292","Darshika","Dwivedi","darshikadwivedi28@gmail.com","9696583605"
"291","ANOOP","KUMAR","yanoop43@gmail.com","6388628412"
"290","Abhishek","Kumar","ak6981047@gmail.com","9565039216"
"289","waseem","akhtar","akhtarw203@gmail.com","9045844959"
"288","Rishabh","Rajput","rishabhrajput6@gmail.com","7906309817"
"287","Abhay Singh","Rathore","abhayrathod2015@gmail.com","8707316251"
"286","Sanjay","Kumar Gupta","sanjaykumargupta60@gmail.com","9839166904"
"285","Prince","gupta","princeji9925@gmail.com","8353919268"
"284","Ashutosh","singh","singhaashutosh1008@gmail.com","8303529256"
"283","ashish","kumar","ashish91181822@gmail.com","6392998256"
"282","sushil","maurya","sushil92maurya@gmail.com","9129510093"
"281","saurabh","pandey","saurabhpandeyx14@gmail.com","8004965925"
"280","indraneel","chaudhary","indraneelchaudharyreet@gmail.com","7007289137"
"279","sanjay","yadav","sanjayyadav40586@gmail.com","9193446898"
"278","Zia","Abdullah","ziaabdullah54321@gmail.com","8808117210"
"277","amrendra","kumar","Amrendrarana11@gmail.com","9415596466"
"276","s","rawat","sumpybhai@gmail.com","6393249696"
"275","Faiz","Khan","faizkhan0903@gmail.com","9517617645"
"274","Anupam kumar","shukla","anushukla1305@gmail.com","9598313212"
"273","Ajay","Yadav","ajayyadav3864@gmail.com","7752836109"
"272","sanjay","patel","dudegareeb@gmail.com","9928137459"
"271","katyayani","tiwari","katyayanitiwari836@email.com","8738044516"
"270","ANKIT","KASHOUDHAN","akki05oct1998@gmail.com","9140572809"
"269","prakash","vishwakarma","krishanavishwakarma143@gmail.com","8574162721"
"268","Abhishek","Shrivastava","Shrivastavafoundation@gmail.com","09407982716"
"267","Pramod kumar","Gupta","kashudhanpramod9838@gmail.com","9616665259"
"266","PRATIKSHA","NARAYANI","mis.pratiksha@gmail.com","7398676539"
"265","Gracy","Patel","gracypatel000@gmail.com","7525824140"
"264","Chandrasen","chaudhary","chandrasenbrh@gmail.com","8922931017"
"263","Om","Gupta","omiigupta99@hmail.com","9026260349"
"262","Swati","Verma","swativerm1995@gmail.com","8429457332"
"261","shailesh","pratap","shaileshrafiganj@gmail.com","8355029609"
"260","Diti","Yadav","ditiyadav@gmail.com","7309570612"
"259","suryansh","b","sbbhanti@gmail.com","8306707514"
"258","Anand","verma","anandawasvikas@gmail.com","9807455825"
"257","vishak","rawat","vishalrawat9931@gmail.com","9792953373"
"256","Rahul","gautam","gautamrahul725@gmail.com","8574709267"
"255","Dron","Pathak","dronpathak251020@gmail.com","7081566610"
"254","ankit","singh","vishalpratapsingh958@gmail.com","9794447287"
"253","VIKRAM","SINGH","dr.vikramsingh8798@gmail.com","7068731257"
"252","Ashutosh","Gupta","ashu567.gupta@gmail.com","9140034632"
"251","ROHIT","Singh","rohit2015singh2015@gmail.com","08299572766"
"250","Akshita","chaurasia","nikkukimmy@gmail.com","8127883261"
"249","Navneet","verma","navneetverma@986gmail.com","6394452331"
"248","surabhi","singh","sdsurabhisingh1108@gmail.com","8303490569"
"247","Mushtaq","Ahmad","mushtaqahmad91919@gmail.com","8181858463"
"246","Poorti","Harisinghani","poorti.haris.09@gmail.com","8112927127"
"245","shiva","pandey","shivapandey99999@gmail.com","9336038896"
"244","Poonam","Yadav","ypunm762@gmail.com","8957187915"
"243","Raj Gaurav","Kushwaha","kushwaha151998@gmail.com","9628203282"
"242","anjali","anjali","www.geetanishad9084@gmail.com","9068252058"
"241","ABDUL","SABID AHMED","abdulsabid111@gmail.com","8090597041"
"240","rimanshi","maurya","rimamaury0522@gmail.com","7839557042"
"239","anil","yadav","ranjanani05@gmail.com","9305558960"
"238","Mayank","Sharma","mayank.knp96@gmail.com","9807706580"
"237","Devendra","Singh","devsinght65@gmail.com","9458050173"
"236","sarfaraj","Ansari","sarfarajansari3749@gmail.com","9616763749"
"235","Abhishek","Kumar","abhivardant53@gmail.com","9305523231"
"234","Anshu","kumar","ak63969373@gmail.com","6396937388"
"233","Amit","Rajput","amitrajputana17@gmail.com","9026535413"
"232","Vishal","Yadav","vishalyadava21091@gmail.com","8081806958"
"231","Abhishek","Yadav","avishekyadav822002@gmail.com","8948638316"
"230","Ritul","kumar","ritul567singh@gmail.com","7521997369"
"229","Mohd","Gulfam","gulfamansari8191909430@gmail.com","8191909430"
"228","jayis","pal","jayispal27998@gmail.com","9773247600"
"227","Akshar","Srivastava","aksharsri7@gmail.com","7860074134"
"226","Ramesh","Singh","rameshr12214@gmail.com","9140087251"
"225","Girjesh","Chaurasia","gk921997@gmail.com","9457629067"
"224","Nilesh","yadav","nileshkumaryadav271@gmail.com","9670150598"
"223","rimanshi","maurya","rmamaury0522@gmail.com","7007526929"
"222","vikash","kumar","vik.vk321@gmail.com","7079720160"
"221","MANISH","KUMAR","manishk8009935@gmail.com","7275020588"
"220","Harsh kumar","Sonkar","harshsonkar2001@gmail.com","8601823436"
"219","Mohd","Jahid","jahidazhari78692@gmail.com","6396268656"
"218","Abhavya","Shukla","abhavyashukla2711@gmail.com","7355433426"
"217","mani","mishra","maniratna745@gmail.com","8887324712"
"216","Surendra yadav","Surendra yadav","surendrayadav6261044@gmail.com","8114278442"
"215","suhel","husain","suhelhusain011@gmail.com","7465949586"
"214","Mohd.Aftab Alam","Ansari","aftabansari.aa42@gmail.com","9005373070"
"213","Arshad","Khan","arshadkhan054805@gmail.com","9918184099"
"212","Rajni","soni","rajnimanjusoni@gmail.com","7572076166"
"211","Astha","Jaiswal","shristyjaiswal7480@gmail.com","7084027854"
"210","Raghvendra","singh","raghvendrasingh000522@gmail.com","9511474097"
"209","SAGAR","MADDHESIYA","madd.sagar@gmail.com","6387268134"
"208","Prateek","Kumar","prateekyadavmom@gmail.com","9758589052"
"207","Rajneesh","Dubey","rajneeshdubey0702@gmail.com","9260999373"
"206","Mohd","Tanjeeb","tanjeebsgp@gmail.com","9719038713"
"205","mayank","vishwakarma","dr.mayank1998@gmail.com","7355215015"
"204","Roshani","Verma","roshaniverma606@gmail.com","6387890112"
"203","akash Kumar","Singh","drakassingh90@gmail.com","7905861593"
"202","Ayush","yadav","ayush1366yadav@gmail.com","7906516738"
"201","Aman","yadav","ay945680@gmail.com","9456801632"
"200","Mohammad","Tarique Khan","mastertariquekhan@gmail.com","7309622799"
"199","Alok kumar","Maurya","samalok3011@gmail.com","8957001582"
"198","Afreen","Jahan","afreenjahan978@gmail.com","9455727417"
"197","Shubham","Sahu","sahushubham5220@gmail.com","7084502654"
"196","Kashyap","Shukla","kashyapshukla25042003@gmail.com","9451682996"
"195","kesav","pal","sandeeppal834@gmail.com","6393934256"
"194","Akshansh","Yadav","akshansh.aiims2017@gmail.com","7238043293"
"193","Mohammad","Umair","mdumair0001@yahoo.com","7379112065"
"192","Ambrish","Trivedi","ambrishtrivedi@gmail.com","7267090742"
"191","Suresh  kumar","Gautam","Sureshr9452@gmail.com","9170427383"
"190","Aamir","Ansari","nagraballia8@gmail.com","7398094199"
"189","Prakhar","Tripathi","triprakhar.pt007@gmail.com","7905183372"
"188","suneel kr","umar","guptasuneel054@gmail.com","7081977262"
"187","PRADEEP KUMAR","GUPTA","drprdpkmrgupta0@gmail.com","9454665685"
"186","Kishan","Singh","ks5566860@gmail.com","6386423388"
"185","naitik","Awasthi","brahmakumarawasthi@gmail.com","6392906326"
"184","karmveer","gaud","gaudkarmveer93@gmail.com","9140009192"
"183","Saurabh","Kumar","kumarsaurabhkumar33@gmail.com","6394991140"
"182","Saba","syed","sabasyed5282@gmail.com","9140982512"
"181","raj","nigam","raj1995nigam@gmail.com","9696935286"
"180","mohd","faizan","mdfaizan7392@gmail.com","8058396500"
"179","shubham chand","kushwah","shubhamck12345@gmail.com","09521611595"
"178","Dwiz","Dwivedi","dwizdwivedi23@gmail.com","8299748137"
"177","satish","yadav","satishyadavptp@gmail.com","9648969710"
"176","Nikita","Yadav","nicks0400801@gmail.com","8303860775"
"175","Durgeshvar","Verma","vermadurgeshvar@gmail.com","8004973320"
"174","Abhishek","yadav","ay486701@gmail.com","7007232849"
"173","Abhishek","pal","pal.contact117@gmail.com","6307759498"
"172","Prashant","Mishra","prashantmishra3425@gmail.com","6307188437"
"171","Durgesh","Nandan","ribosome.bio91@gmail.com","9151623148"
"170","Manish","Mishra","manish0611mishra@gmail.com","7007295715"
"169","shahdab","ansari","ansarishahdab3242@gmail.com","7860104359"
"168","Ravi","pal","rvraikwar4658@gmail.com","9455197375"
"167","kaushlesh","yadav","kaushleshyadav96@gmail.com","7379812771"
"166","Kaushal","Anand","kaushala088@gmail.com","8090780878"
"165","shweta","singh","shwetasingh2298@gmail.com","9455717957"
"164","SANDEEP","PAL","sandeepkrpal089@gmail.com","8874501289"
"163","Alok Kumar","Singh","alokninholiya@gmail.com","9936219695"
"162","Rahul","Yadav","raj651023@gmail.com","8795656572"
"161","Vikrant","Gautam","gautamvikrant303@gmail.com","9170669978"
"160","Sushil","Bharti","sushil2402bharti@gmail.com","6393493947"
"159","divyansh","vishwakarma","divyansh1410@gmail.com","9795560742"
"158","Yash","Misra","dr.yashmisra@gmail.com","9936593425"
"157","Abhishek","Yadav","abhishekyadav222180@gmail.com","9455053131"
"156","Gyanendra","pratap","gyanendrapratap1994rao@gmail.com","8299349911"
"155","Suyash","Dubey","suyash2000dubey@gmail.com","8787055030"
"154","Siddhartha","thakur","manalesingh@gmail.com","7991551632"
"153","Apoorv","Asthana","apoorv.asthana17@gmail.com","7839056409"
"152","yashovardhan","singh","shroney098@gmail.com","8182870195"
"151","Shreya","Singh","shreya.5.bebo@gmail.com","8303799260"
"150","Devendra","Yadav","yadavdevendra8881@gmail.com","7860453938"
"149","Lavkush","Lavkush","saurabh2609558@gmail.com","8739044023"
"148","rajkamal","sharma","rajkamalsharma653@gmail.com","9140076521"
"147","satyam","gupta","gautamvikrant303@gmail.com","9161730072"
"146","Amit","kumar","amit1125kubind@gmail.com","9936054424"
"145","Nilesh","Rajpoot","nileshrajpoot2836@gmail.com","9305972836"
"144","Pihoo","Pathak","pihoopathak@gmail.com","9260972464"
"143","mo","danish","mo.danishpb@gmail.com","9792982737"
"142","suyash","jaiswal","jaiswalsuyash59@gmail.com","9125777009"
"141","Jitendra Kr.","Prajapati","jkpvns2017@gmail.com","7355143937"
"140","kanchan","sagar","kanchansagar1107@gmail.com","9026556753"
"139","Udai","Pratap Singh","abhishek.in.07@gmail.com","7007709444"
"138","Nitin","Yadav","nitiny294@gmail.com","9458427029"
"137","ATUL","PAL","atulpal270@gmail.com","7400357435"
"136","robin","yad.","girizaghar2@gmail.com","9662402055"
"135","Ambeshvar","Verma","verma.ambeshvar369@gmail.com","7376751663"
"134","Shameem Ahmad","Ansari","shameemansari8494@gmail.com","8004612636"
"133","nilesh","singh","Naksh0809singh@gmail.com","7525893356"
"132","Isha","Yadav","ishayadav1913@gmail.com","6306286860"
"131","ashmi","singh","ashmisingh198@gmail.com","9628196975"
"130","KRISHNAM","KALRA","cutekrishna2001@gmail.com","8318977916"
"129","astha","bajpai","bajpaiastha23@gmail.com","8173070024"
"128","pooja","kumari","kpooja97@gmail.com","7395077696"
"127","Vinod","Kushwaha","vinodkushwaha320@gmail.com","8840667521"
"126","ANKUSH","YADAV","yadavankush175@gmail.com","8565824847"
"125","soumya","trived","somutriv@gmail.com","9305116671"
"124","mayank","awasthi","mayankawasthi748@gmail.com","7355316025"
"123","Vivek","Kumar","vivekkumar212552@gmail.com","8423709928"
"122","Sandeep","Kumar","sk000chandausi@gmail.com","9456613767"
"121","Avaneesh kumar","kannaujiya","avaneeshkumar81@gmail.com","8182831688"
"120","mritunjay","tiwari","ajayt5819@gmail.com","7388646325"
"119","Kamlesh","kumar","Kam7565891@gmail.com","9696017046"
"118","Adeeba","khanam","adeeba.2021@gmail.com","8601000039"
"117","Subham","Tiwari","shubhhum123@gmail.com","6393097005"
"116","Akash","SINGH","akashsingh1471999@gmail.com","7985858883"
"115","srishti","yadav","yadavsrishti856@gmail.com","8737066663"
"114","Sandeep","Kumar","kumarsandeep60708@gmail.com","8707893023"
"113","Niharika","sen","Niharika91150@gmail.com","9115053949"
"112","Mayuri","Ranjan","alokranjan99jan@gmail.com","6306082279"
"111","mohammed","kaif","mkaif4208@gmail.com","6375310956"
"110","Sartaj","Alam","alam.sarataj786@gmail.com","9169509818"
"109","VIKAS","GAUTAM","vkgautam099@gmail.com","9264936619"
"108","Bhupendra","Singh","bhupendrasinghsingh50@gmail.com","8052571068"
"107","satendra","sharma","skp7415@gmail.com","9956656083"
"106","akhil","pratap","pratapakhilesh58@gmail.com","8381831224"
"105","hariom","bind","hariombind9@gmail.com","9651457535"
"104","Ahmad","Husain","ahmadhusain7829@gmail.com","8953240238"
"103","Mishti","Singh","minishasingh014@gmail.com","6394656611"
"102","Anurag","Agnihotri","anurag100795@gmail.com","09760841198"
"101","satish","verma","satishverma760750@gmail.com","9506971260"
"100","Aayush","singh","singh.ashu1220@gmail.com","9120832819"
"99","adarsh vardhan","thakur","adarshvardhan1998@gmail.com","6393489424"
"98","Naeem","Akhtar","naeemnaeem9616@gmail.com","8188885546"
"97","Vishal","Yadav","rxvishal99@gmail.com","9415442199"
"96","Saurabh","Gupta","saurabhgupt00@gmail.com","8853661968"
"95","Arun","Kumar Katiyar","myarunkatiyar@gmail.com","6394153104"
"94","Deepak Kumar","Prajapati","dk705472@gmail.com","8934862071"
"93","abhi","katiyar","katiyarabhi1998@gmail.com","7080127199"
"92","mashooque","ali","alimashooque98@gmail.com","9554651786"
"91","rohit","kumar","crohit8798@gmail.com","8543038253"
"90","Piyush","Prakash Tiwari","stalkerchora@gmail.com","9166855346"
"89","Ayush","Gupta","thekingayush1@gmail.com","6394314891"
"88","anurag","yadav","doyourbestanu@gmail.com","7905532048"
"87","Anmol","Shakya","pranami2013.anmol@gmail.com","08958745562"
"86","anmol","singh","anmol.singh231629@gmail.com","7068555600"
"85","akhilesh","pankaj","akhileshpankaj98@gmail.com","8004227126"
"84","sanchayita","sarkar","reachsanchayita@gmail.com","9830053065"
"83","Abhishek","Gupta","abhistarwar@gmail.com","8090181023"
"82","Alok","Pandey","alok27092001@gmail.com","8840365380"
"81","ameen","ameen","atifameen27@gmail.com","8299709655"
"80","Soheb","Ahmad","shakeel.ahmad094@gmail.com","9140204450"
"79","HEMANT","KUMAR YADAV","anshu.jnp2017@gmail.com","7007737520"
"78","Dharmendra","yadav","Yadav301292@gmail.com","06306970315"
"77","Anil","Rao","anilaice1998@gmail.com","9120125536"
"76","Aagman","Gaur","gauraman926@gmail.com","7991968125"
"75","alok","kumar","alokkumar130798@gmail.com","7618820773"
"74","Bhavana","Patel","patelbhavana791@gmail.com","8103968975"
"73","Alok","Kumar","ashishbins165@gmail.com","9682818137"
"72","Bhavana","Patel","patelbhavana791@gmail.com","8103228260"
"71","Ritika","Singh","ritzee681999@gmail.com","9412052887"
"70","ajay","mishra","ajaymishra0432@gmail.com","8528696694"
"69","vipin","sahu","sahuvipin99@gmail.com","8353900941"
"68","GOLU","JAISWAL","goluj41@gmail.com","7784958760"
"67","Praveen kumar","Yadav","praveenkumaryadav221@gmail.com","9026827230"
"66","Mohd","Ashraf","ashraf3186@gmail.com","9557860289"
"65","kamal","kumar","kamallucky501@gmail.com","08299202452"
"64","Vijaya","Raje","vijayaraje675@gmail.com","9453978604"
"63","Ajitabh","Pandey","ajitabh.05mbbs@gmail.com","8299714065"
"62","AMIT","KUMAR","amitkumar2511425@gmail.com","7752931992"
"61","prateek","yadav","yadav.prateek8795@gmail.com","8795951563"
"60","prakhar","tiwari","abctiwari351@gmail.com","8874354373"
"59","Vasu Udgeet","Pradhan","vasuudgeetpradhan@gmail.com","9685684324"
"58","sachin","verma","spv52174@gmail.com","6386744810"
"57","Sarangdhar","Verma","sarangdharverma2016@gmail.com","6394524765"
"56","aman","vishwakarma","amanvishwakarma503@gmail.com","8726232006"
"55","Gurpreet","Singh","gurpreetsinghsodhi2000@gmail.com","8707533154"
"54","Arwaj","Ali","arwazrizvi11@gmail.com","06397507264"
"53","Mohammad","Osama","mymohdosama@gmail.com","8604349406"
"52","Ajay","Verma","ajayv0196@gmail.com","7905538464"
"51","Ashmit","singh","ashmitsingh2001.as@gmail.com","7348173564"
"50","ABHISHEK","KUMAR","abhikumarbind@gmail.com","7752931995"
"49","Prabhat","yadav","pky6058128@gmail.com","6386925100"
"48","Rohit","Yadav","rohity2r@gmail.com","7905159269"
"47","Dileep","Sharma","Dileepsharma110@gmail.com","8318420090"
"46","IT","IT","sunpybhai@gmail.com","7007827619"
"45","PRAKHAR RAJ","SRIVASTAV","srivastavdrpk@gmail.com","8840401900"
"44","Ankita","Nigam","ankitanigam@newlightinstitute.in","7706942413"
"43","Dr S P","Singh","drspsingh.nli@gmail.com","9919198000"
"42","pooja","kumari","mail2poojasinghaniya@gmail.com","6307160683"
"41","Ruby","singh","rsrubysingh@gmail.com","9045639391"
"40","Ganesh","chaurasiya","ganeshchaurasiya2017@gmail.com","9984285302"
"39","Mitul","Srivastava","Mitul.srivastava@hotmail.com","9509316529"
"38","alok","baboo","alokslace@gmail.com","9161706390"
"37","Ram Pratap","Singh","rampratap.rps71@gmail.com","7785875364"
"36","Suchita","Tiwari","SUCHITATIWARISP3@gmail.com","7266940191"
"35","Atul","Kumar","atulkumar.zeal@gmail.com","7388513085"
"34","RAJEEV","SHUKLA","rajcompscon@gmail.com","9839212940"
"33","Ram","Chandra","ramchander@newlightinstitute.in","9839112036"
"32","Ishan","Gupta","ishan_1503@yahoo.co.in","9650381013"
"31","saurabh","singh","srbhheart9@gmail.com","7666657010"
"30","Mitul","Srivastava","mitulsrivastava@hotmail.com","7618002971"
"29","Kushal","Mehra","mehrakushal123@yahoo.co.in","9552228803"
"28","pankaj","kumar yadav","pankajkryadav01@gmail.com","09807929889"
"27","rahul","ver","sandeepverma001@hotmail.com","9696805690"
"26","Raees","Ansari","rahisansari10@gmail.com","7007570255"
"25","Pankaj","RK","pankajk1612@gmail.com","9984789815"
"24","arn","vr","sandeepverma001@hotmail.com","9839936562"
"23","Jayant","Yadav","yadavjayan918@gmail.com","9650616249"
"22","Shweta","Ranjan","sranjn0222@gmail.com","6387894290"
"21","PREETAM KUMAR","AGRAHARI","preetam945364@gmail.com","9453648890"
"20","Garima","Singh","gs4444887@gmail.com","7379023058"
"19","Anand Prakash","Yadav","apyadav14124@gmail.com","9151757095"
"18","ravi","verma","sumpybhai@gmail.com","8447101296"
"17","a","a","riyarth.3132@gmail.com","9667327805"
"16","r","v","sandeepverma001@hotmail.com","9415537968"
"15","Shashank","Mishra","shashankmishra.229@gmail.com","8076042040"
"14","Jayant","Yadav","yadavjayan918@gmail.com","9118837337"
"13","sa","ver","sumpybhai@gmail.com","8299568703"
"12","jjjkjhj","fycjgc","gigchfzurdkyc@gmail.com","8081105998"
"11","Ijjkk","kikjkk","khhikk@gmail.com","9415127691"
"10","Utkarsh","Singh","utkarshs.566@gmail.com","7703091177"
"9","Sandeep","Verma","sandeepverma001@hotmail.com","9369409283"
"8","rishabh","sharma","rishabh@gmail.com","9988776655"
"7","Vaibhav","account","piyush.agrawal001@gmail.com","9650381015"
"6","Tuvhjj","hjjk","fghh@gmail.com","7983678588"
"5","jdjrj","kdkdk","jdkdk@gmail.com","7983678588"
"4","Rishabh","Sharma","rishabh@gmail.com","9999102033"
"3","Rishabh","desvela","rishabh@gmail.com","9718808706"
"2","Rubyk","yadav","ruby@gmail.com","8588819429"
"1","Utkarsh","Singh","utkarshs.566@gmail.com","7703051177"
